tb/waves_ctb_tb_manchester_baby.vcd
$date
	Sun Dec  3 16:52:07 2023
$end
$version
	Icarus Verilog
$end
$timescale
	1ps
$end
$scope module tb_manchester_baby $end
$scope module uut_manchester_baby $end
$var wire 1 ! clock $end
$var wire 32 " ram_data_i [31:0] $end
$var wire 1 # reset_i $end
$var wire 1 $ stop_lamp_o $end
$var wire 1 % ram_rw_en_o $end
$var wire 32 & ram_data_o [31:0] $end
$var wire 5 ' ram_addr_o [4:0] $end
$var wire 1 ( logisim_clock_tree_0_out $end
$scope module manchester_baby_instance $end
$var wire 1 ! fpgaGlobalClock $end
$var wire 1 ) ram_data_i_0 $end
$var wire 1 * ram_data_i_1 $end
$var wire 1 + ram_data_i_10 $end
$var wire 1 , ram_data_i_11 $end
$var wire 1 - ram_data_i_12 $end
$var wire 1 . ram_data_i_13 $end
$var wire 1 / ram_data_i_14 $end
$var wire 1 0 ram_data_i_15 $end
$var wire 1 1 ram_data_i_16 $end
$var wire 1 2 ram_data_i_17 $end
$var wire 1 3 ram_data_i_18 $end
$var wire 1 4 ram_data_i_19 $end
$var wire 1 5 ram_data_i_2 $end
$var wire 1 6 ram_data_i_20 $end
$var wire 1 7 ram_data_i_21 $end
$var wire 1 8 ram_data_i_22 $end
$var wire 1 9 ram_data_i_23 $end
$var wire 1 : ram_data_i_24 $end
$var wire 1 ; ram_data_i_25 $end
$var wire 1 < ram_data_i_26 $end
$var wire 1 = ram_data_i_27 $end
$var wire 1 > ram_data_i_28 $end
$var wire 1 ? ram_data_i_29 $end
$var wire 1 @ ram_data_i_3 $end
$var wire 1 A ram_data_i_30 $end
$var wire 1 B ram_data_i_31 $end
$var wire 1 C ram_data_i_4 $end
$var wire 1 D ram_data_i_5 $end
$var wire 1 E ram_data_i_6 $end
$var wire 1 F ram_data_i_7 $end
$var wire 1 G ram_data_i_8 $end
$var wire 1 H ram_data_i_9 $end
$var wire 1 % ram_rw_en_o_0 $end
$var wire 1 # reset_i_0 $end
$var wire 1 I s_reset_i $end
$var wire 1 $ stop_lamp_o_0 $end
$var wire 1 J s_stop_lamp_o $end
$var wire 1 K s_ram_rw_en_o $end
$var wire 32 L s_ram_data_o [31:0] $end
$var wire 32 M s_ram_data_i [31:0] $end
$var wire 5 N s_ram_addr_o [4:0] $end
$var wire 5 O s_logisimClockTree0 [4:0] $end
$var wire 1 P s_fpgaTick $end
$var wire 1 Q ram_data_o_9 $end
$var wire 1 R ram_data_o_8 $end
$var wire 1 S ram_data_o_7 $end
$var wire 1 T ram_data_o_6 $end
$var wire 1 U ram_data_o_5 $end
$var wire 1 V ram_data_o_4 $end
$var wire 1 W ram_data_o_31 $end
$var wire 1 X ram_data_o_30 $end
$var wire 1 Y ram_data_o_3 $end
$var wire 1 Z ram_data_o_29 $end
$var wire 1 [ ram_data_o_28 $end
$var wire 1 \ ram_data_o_27 $end
$var wire 1 ] ram_data_o_26 $end
$var wire 1 ^ ram_data_o_25 $end
$var wire 1 _ ram_data_o_24 $end
$var wire 1 ` ram_data_o_23 $end
$var wire 1 a ram_data_o_22 $end
$var wire 1 b ram_data_o_21 $end
$var wire 1 c ram_data_o_20 $end
$var wire 1 d ram_data_o_2 $end
$var wire 1 e ram_data_o_19 $end
$var wire 1 f ram_data_o_18 $end
$var wire 1 g ram_data_o_17 $end
$var wire 1 h ram_data_o_16 $end
$var wire 1 i ram_data_o_15 $end
$var wire 1 j ram_data_o_14 $end
$var wire 1 k ram_data_o_13 $end
$var wire 1 l ram_data_o_12 $end
$var wire 1 m ram_data_o_11 $end
$var wire 1 n ram_data_o_10 $end
$var wire 1 o ram_data_o_1 $end
$var wire 1 p ram_data_o_0 $end
$var wire 1 q ram_addr_o_4 $end
$var wire 1 r ram_addr_o_3 $end
$var wire 1 s ram_addr_o_2 $end
$var wire 1 t ram_addr_o_1 $end
$var wire 1 u ram_addr_o_0 $end
$var wire 1 ( logisim_clock_tree_0_out $end
$scope module BASE_0 $end
$var wire 1 ! FPGAClock $end
$var wire 1 P FPGATick $end
$var wire 1 v s_tickNext $end
$var wire 3 w s_countNext [2:0] $end
$var reg 3 x s_countReg [2:0] $end
$var reg 1 y s_tickReg $end
$upscope $end
$scope module BASE_1 $end
$var wire 1 P clockTick $end
$var wire 1 ! globalClock $end
$var wire 1 z s_counterNext $end
$var wire 1 { s_counterIsZero $end
$var wire 5 | clockBus [4:0] $end
$var reg 2 } s_bufferRegs [1:0] $end
$var reg 1 ~ s_counterValue $end
$var reg 1 !" s_derivedClock $end
$var reg 4 "" s_outputRegs [3:0] $end
$var integer 32 #" n [31:0] $end
$upscope $end
$scope module CIRCUIT_0 $end
$var wire 5 $" logisimClockTree0 [4:0] $end
$var wire 5 %" ram_addr_o [4:0] $end
$var wire 32 &" ram_data_i [31:0] $end
$var wire 32 '" ram_data_o [31:0] $end
$var wire 1 K ram_rw_en_o $end
$var wire 1 I reset_i $end
$var wire 32 (" s_logisimBus11 [31:0] $end
$var wire 5 )" s_logisimBus69 [4:0] $end
$var wire 5 *" s_logisimBus70 [4:0] $end
$var wire 5 +" s_logisimBus71 [4:0] $end
$var wire 5 ," s_logisimBus72 [4:0] $end
$var wire 5 -" s_logisimBus73 [4:0] $end
$var wire 32 ." s_logisimBus74 [31:0] $end
$var wire 32 /" s_logisimBus75 [31:0] $end
$var wire 5 0" s_logisimBus76 [4:0] $end
$var wire 5 1" s_logisimBus77 [4:0] $end
$var wire 5 2" s_logisimBus78 [4:0] $end
$var wire 5 3" s_logisimBus79 [4:0] $end
$var wire 5 4" s_logisimBus80 [4:0] $end
$var wire 32 5" s_logisimBus81 [31:0] $end
$var wire 32 6" s_logisimBus82 [31:0] $end
$var wire 5 7" s_logisimBus83 [4:0] $end
$var wire 1 8" s_logisimNet32 $end
$var wire 1 9" s_logisimNet49 $end
$var wire 1 :" s_logisimNet84 $end
$var wire 1 J stop_lamp_o $end
$var wire 1 ;" s_logisimNet9 $end
$var wire 1 <" s_logisimNet85 $end
$var wire 1 =" s_logisimNet7 $end
$var wire 1 >" s_logisimNet68 $end
$var wire 1 ?" s_logisimNet67 $end
$var wire 1 @" s_logisimNet66 $end
$var wire 1 A" s_logisimNet65 $end
$var wire 1 B" s_logisimNet64 $end
$var wire 1 C" s_logisimNet63 $end
$var wire 1 D" s_logisimNet62 $end
$var wire 1 E" s_logisimNet61 $end
$var wire 1 F" s_logisimNet60 $end
$var wire 1 G" s_logisimNet58 $end
$var wire 1 H" s_logisimNet57 $end
$var wire 1 I" s_logisimNet55 $end
$var wire 1 J" s_logisimNet54 $end
$var wire 1 K" s_logisimNet53 $end
$var wire 1 L" s_logisimNet52 $end
$var wire 1 M" s_logisimNet51 $end
$var wire 1 N" s_logisimNet47 $end
$var wire 1 O" s_logisimNet43 $end
$var wire 1 P" s_logisimNet41 $end
$var wire 1 Q" s_logisimNet40 $end
$var wire 1 R" s_logisimNet39 $end
$var wire 1 S" s_logisimNet36 $end
$var wire 1 T" s_logisimNet34 $end
$var wire 1 U" s_logisimNet33 $end
$var wire 1 V" s_logisimNet3 $end
$var wire 1 W" s_logisimNet28 $end
$var wire 1 X" s_logisimNet26 $end
$var wire 1 Y" s_logisimNet25 $end
$var wire 1 Z" s_logisimNet23 $end
$var wire 1 [" s_logisimNet21 $end
$var wire 1 \" s_logisimNet20 $end
$var wire 1 ]" s_logisimNet14 $end
$var wire 1 ^" s_logisimNet10 $end
$var wire 32 _" s_logisimBus8 [31:0] $end
$var wire 32 `" s_logisimBus6 [31:0] $end
$var wire 5 a" s_logisimBus56 [4:0] $end
$var wire 5 b" s_logisimBus5 [4:0] $end
$var wire 5 c" s_logisimBus48 [4:0] $end
$var wire 5 d" s_logisimBus45 [4:0] $end
$var wire 32 e" s_logisimBus42 [31:0] $end
$var wire 5 f" s_logisimBus4 [4:0] $end
$var wire 32 g" s_logisimBus38 [31:0] $end
$var wire 32 h" s_logisimBus37 [31:0] $end
$var wire 5 i" s_logisimBus35 [4:0] $end
$var wire 5 j" s_logisimBus31 [4:0] $end
$var wire 5 k" s_logisimBus30 [4:0] $end
$var wire 32 l" s_logisimBus29 [31:0] $end
$var wire 5 m" s_logisimBus27 [4:0] $end
$var wire 5 n" s_logisimBus24 [4:0] $end
$var wire 5 o" s_logisimBus22 [4:0] $end
$var wire 32 p" s_logisimBus2 [31:0] $end
$var wire 5 q" s_logisimBus19 [4:0] $end
$var wire 5 r" s_logisimBus18 [4:0] $end
$var wire 5 s" s_logisimBus17 [4:0] $end
$var wire 3 t" s_logisimBus16 [2:0] $end
$var wire 5 u" s_logisimBus15 [4:0] $end
$var wire 5 v" s_logisimBus13 [4:0] $end
$var wire 5 w" s_logisimBus1 [4:0] $end
$var wire 1 ( logisim_clock_tree_0 $end
$scope module ARITH_35 $end
$var wire 1 x" borrowIn $end
$var wire 1 y" borrowOut $end
$var wire 32 z" dataB [31:0] $end
$var wire 1 {" s_carry $end
$var wire 32 |" result [31:0] $end
$var wire 32 }" dataA [31:0] $end
$upscope $end
$scope module ARITH_36 $end
$var wire 1 ~" borrowIn $end
$var wire 1 !# borrowOut $end
$var wire 32 "# dataA [31:0] $end
$var wire 32 ## dataB [31:0] $end
$var wire 1 $# s_carry $end
$var wire 32 %# result [31:0] $end
$upscope $end
$scope module ARITH_37 $end
$var wire 1 &# aGreaterThanB $end
$var wire 1 '# aLessThanB $end
$var wire 32 (# dataB [31:0] $end
$var wire 1 )# s_unsignedLess $end
$var wire 1 *# s_unsignedGreater $end
$var wire 1 +# s_signedLess $end
$var wire 1 ,# s_signedGreater $end
$var wire 32 -# dataA [31:0] $end
$var wire 1 .# aEqualsB $end
$upscope $end
$scope module ARITH_38 $end
$var wire 1 /# carryIn $end
$var wire 5 0# dataA [4:0] $end
$var wire 5 1# result [4:0] $end
$var wire 5 2# dataB [4:0] $end
$var wire 1 3# carryOut $end
$upscope $end
$scope module ARITH_39 $end
$var wire 1 4# carryIn $end
$var wire 5 5# dataA [4:0] $end
$var wire 5 6# result [4:0] $end
$var wire 5 7# dataB [4:0] $end
$var wire 1 8# carryOut $end
$upscope $end
$scope module ARITH_40 $end
$var wire 1 9# carryIn $end
$var wire 5 :# dataB [4:0] $end
$var wire 5 ;# result [4:0] $end
$var wire 5 <# dataA [4:0] $end
$var wire 1 =# carryOut $end
$upscope $end
$scope module Acc $end
$var wire 1 ># clock $end
$var wire 1 9" reset $end
$var wire 1 ?# s_clock $end
$var wire 1 @# tick $end
$var wire 32 A# q [31:0] $end
$var wire 32 B# d [31:0] $end
$var wire 1 Z" clockEnable $end
$var reg 32 C# s_currentState [31:0] $end
$upscope $end
$scope module GATES_1 $end
$var wire 1 U" result $end
$var wire 1 D# s_realInput1 $end
$var wire 1 E# s_realInput2 $end
$var wire 1 E" input2 $end
$var wire 1 F" input1 $end
$upscope $end
$scope module GATES_10 $end
$var wire 32 F# result [31:0] $end
$var wire 32 G# s_realInput1 [31:0] $end
$var wire 32 H# s_realInput2 [31:0] $end
$var wire 32 I# input2 [31:0] $end
$var wire 32 J# input1 [31:0] $end
$upscope $end
$scope module GATES_11 $end
$var wire 1 Z" result $end
$var wire 1 K# s_realInput1 $end
$var wire 1 L# s_realInput2 $end
$var wire 1 =" input2 $end
$var wire 1 ]" input1 $end
$upscope $end
$scope module GATES_12 $end
$var wire 1 @" result $end
$var wire 1 M# s_realInput1 $end
$var wire 1 N# s_realInput2 $end
$var wire 1 I" input2 $end
$var wire 1 \" input1 $end
$upscope $end
$scope module GATES_13 $end
$var wire 1 <" input1 $end
$var wire 1 S" result $end
$var wire 1 O# s_realInput1 $end
$var wire 1 P# s_realInput2 $end
$var wire 1 O" input2 $end
$upscope $end
$scope module GATES_14 $end
$var wire 1 @" input1 $end
$var wire 1 K" result $end
$var wire 1 Q# s_realInput1 $end
$var wire 1 R# s_realInput2 $end
$var wire 1 S# s_realInput3 $end
$var wire 1 D" input3 $end
$var wire 1 A" input2 $end
$upscope $end
$scope module GATES_15 $end
$var wire 1 X" result $end
$var wire 1 T# s_realInput1 $end
$var wire 1 U# s_realInput2 $end
$var wire 1 >" input2 $end
$var wire 1 F" input1 $end
$upscope $end
$scope module GATES_16 $end
$var wire 1 ^" result $end
$var wire 1 V# s_realInput1 $end
$var wire 1 W# s_realInput2 $end
$var wire 1 >" input2 $end
$var wire 1 G" input1 $end
$upscope $end
$scope module GATES_17 $end
$var wire 1 R" result $end
$var wire 1 X# s_realInput1 $end
$var wire 1 Y# s_realInput2 $end
$var wire 1 >" input2 $end
$var wire 1 E" input1 $end
$upscope $end
$scope module GATES_18 $end
$var wire 1 K" input1 $end
$var wire 1 [" result $end
$var wire 1 Z# s_realInput1 $end
$var wire 1 [# s_realInput2 $end
$var wire 1 >" input2 $end
$upscope $end
$scope module GATES_19 $end
$var wire 5 \# result [4:0] $end
$var wire 5 ]# s_realInput1 [4:0] $end
$var wire 5 ^# s_realInput2 [4:0] $end
$var wire 5 _# s_realInput3 [4:0] $end
$var wire 5 `# s_realInput4 [4:0] $end
$var wire 5 a# s_realInput5 [4:0] $end
$var wire 5 b# input5 [4:0] $end
$var wire 5 c# input4 [4:0] $end
$var wire 5 d# input3 [4:0] $end
$var wire 5 e# input2 [4:0] $end
$var wire 5 f# input1 [4:0] $end
$upscope $end
$scope module GATES_2 $end
$var wire 1 V" result $end
$var wire 1 g# s_realInput1 $end
$var wire 1 h# s_realInput2 $end
$var wire 1 A" input2 $end
$var wire 1 C" input1 $end
$upscope $end
$scope module GATES_20 $end
$var wire 1 ;" result $end
$var wire 1 i# s_realInput1 $end
$var wire 1 j# s_realInput2 $end
$var wire 1 >" input2 $end
$var wire 1 ?" input1 $end
$upscope $end
$scope module GATES_3 $end
$var wire 1 P" result $end
$var wire 1 k# s_realInput1 $end
$var wire 1 l# s_realInput2 $end
$var wire 1 D" input2 $end
$var wire 1 C" input1 $end
$upscope $end
$scope module GATES_4 $end
$var wire 1 @" input2 $end
$var wire 1 Q" result $end
$var wire 1 m# s_realInput1 $end
$var wire 1 n# s_realInput2 $end
$var wire 1 C" input1 $end
$upscope $end
$scope module GATES_5 $end
$var wire 1 U" input2 $end
$var wire 1 W" result $end
$var wire 1 o# s_realInput1 $end
$var wire 1 p# s_realInput2 $end
$var wire 1 B" input1 $end
$upscope $end
$scope module GATES_6 $end
$var wire 5 q# result [4:0] $end
$var wire 5 r# s_realInput1 [4:0] $end
$var wire 5 s# s_realInput2 [4:0] $end
$var wire 5 t# s_realInput3 [4:0] $end
$var wire 5 u# s_realInput4 [4:0] $end
$var wire 5 v# s_realInput5 [4:0] $end
$var wire 5 w# input5 [4:0] $end
$var wire 5 x# input4 [4:0] $end
$var wire 5 y# input3 [4:0] $end
$var wire 5 z# input2 [4:0] $end
$var wire 5 {# input1 [4:0] $end
$upscope $end
$scope module GATES_7 $end
$var wire 1 @" input2 $end
$var wire 1 =" result $end
$var wire 1 |# s_realInput1 $end
$var wire 1 }# s_realInput2 $end
$var wire 1 B" input1 $end
$upscope $end
$scope module GATES_8 $end
$var wire 1 ]" result $end
$var wire 1 ~# s_realInput1 $end
$var wire 1 !$ s_realInput2 $end
$var wire 1 A" input2 $end
$var wire 1 B" input1 $end
$upscope $end
$scope module GATES_9 $end
$var wire 1 L" result $end
$var wire 1 "$ s_realInput1 $end
$var wire 1 #$ s_realInput2 $end
$var wire 1 B" input2 $end
$var wire 1 T" input1 $end
$upscope $end
$scope module IR $end
$var wire 1 $$ clock $end
$var wire 32 %$ d [31:0] $end
$var wire 1 9" reset $end
$var wire 1 &$ s_clock $end
$var wire 1 '$ tick $end
$var wire 32 ($ q [31:0] $end
$var wire 1 M" clockEnable $end
$var reg 32 )$ s_currentState [31:0] $end
$upscope $end
$scope module MEMORY_42 $end
$var wire 1 *$ clock $end
$var wire 1 +$ preset $end
$var wire 1 N" q $end
$var wire 1 O" qBar $end
$var wire 1 :" r $end
$var wire 1 9" reset $end
$var wire 1 L" s $end
$var wire 1 ,$ s_clock $end
$var wire 1 -$ s_nextState $end
$var wire 1 .$ tick $end
$var reg 1 /$ s_currentState $end
$upscope $end
$scope module MEMORY_44 $end
$var wire 1 9" clear $end
$var wire 1 S" clock $end
$var wire 1 0$ compareOut $end
$var wire 1 1$ enable $end
$var wire 1 2$ load $end
$var wire 3 3$ loadData [2:0] $end
$var wire 1 4$ s_clock $end
$var wire 1 5$ tick $end
$var wire 1 8" upNotDown $end
$var wire 1 6$ s_realEnable $end
$var wire 3 7$ countValue [2:0] $end
$var reg 1 8$ s_carry $end
$var reg 3 9$ s_counterValue [2:0] $end
$var reg 3 :$ s_nextCounterValue [2:0] $end
$upscope $end
$scope module PC $end
$var wire 1 ;$ clock $end
$var wire 1 ;" clockEnable $end
$var wire 5 <$ d [4:0] $end
$var wire 1 9" reset $end
$var wire 1 =$ s_clock $end
$var wire 1 >$ tick $end
$var wire 5 ?$ q [4:0] $end
$var reg 5 @$ s_currentState [4:0] $end
$upscope $end
$scope module PLEXERS_21 $end
$var wire 1 A$ enable $end
$var wire 5 B$ muxIn_0 [4:0] $end
$var wire 5 C$ muxIn_1 [4:0] $end
$var wire 1 H" sel $end
$var wire 5 D$ muxOut [4:0] $end
$var reg 6 E$ s_selected_vector [5:0] $end
$upscope $end
$scope module PLEXERS_22 $end
$var wire 1 F$ enable $end
$var wire 5 G$ muxIn_0 [4:0] $end
$var wire 5 H$ muxIn_1 [4:0] $end
$var wire 1 V" sel $end
$var wire 5 I$ muxOut [4:0] $end
$var reg 6 J$ s_selected_vector [5:0] $end
$upscope $end
$scope module PLEXERS_23 $end
$var wire 1 K$ enable $end
$var wire 5 L$ muxIn_0 [4:0] $end
$var wire 5 M$ muxIn_1 [4:0] $end
$var wire 1 P" sel $end
$var wire 5 N$ muxOut [4:0] $end
$var reg 6 O$ s_selected_vector [5:0] $end
$upscope $end
$scope module PLEXERS_24 $end
$var wire 1 P$ enable $end
$var wire 5 Q$ muxIn_0 [4:0] $end
$var wire 5 R$ muxIn_1 [4:0] $end
$var wire 1 Q" sel $end
$var wire 5 S$ muxOut [4:0] $end
$var reg 6 T$ s_selected_vector [5:0] $end
$upscope $end
$scope module PLEXERS_25 $end
$var wire 1 U$ enable $end
$var wire 5 V$ muxIn_0 [4:0] $end
$var wire 5 W$ muxIn_1 [4:0] $end
$var wire 1 W" sel $end
$var wire 5 X$ muxOut [4:0] $end
$var reg 6 Y$ s_selected_vector [5:0] $end
$upscope $end
$scope module PLEXERS_26 $end
$var wire 1 Z$ enable $end
$var wire 32 [$ muxIn_0 [31:0] $end
$var wire 32 \$ muxIn_1 [31:0] $end
$var wire 1 =" sel $end
$var wire 32 ]$ muxOut [31:0] $end
$var reg 33 ^$ s_selected_vector [32:0] $end
$upscope $end
$scope module PLEXERS_27 $end
$var wire 1 _$ enable $end
$var wire 32 `$ muxIn_0 [31:0] $end
$var wire 32 a$ muxIn_1 [31:0] $end
$var wire 1 ]" sel $end
$var wire 32 b$ muxOut [31:0] $end
$var reg 33 c$ s_selected_vector [32:0] $end
$upscope $end
$scope module PLEXERS_28 $end
$var wire 1 d$ enable $end
$var wire 3 e$ sel [2:0] $end
$var wire 1 T" decoderOut_7 $end
$var wire 1 G" decoderOut_6 $end
$var wire 1 I" decoderOut_5 $end
$var wire 1 \" decoderOut_4 $end
$var wire 1 D" decoderOut_3 $end
$var wire 1 A" decoderOut_2 $end
$var wire 1 E" decoderOut_1 $end
$var wire 1 F" decoderOut_0 $end
$upscope $end
$scope module PLEXERS_29 $end
$var wire 1 f$ enable $end
$var wire 5 g$ muxIn_0 [4:0] $end
$var wire 5 h$ muxIn_1 [4:0] $end
$var wire 1 ?" sel $end
$var wire 5 i$ muxOut [4:0] $end
$var reg 6 j$ s_selected_vector [5:0] $end
$upscope $end
$scope module PLEXERS_30 $end
$var wire 1 k$ enable $end
$var wire 5 l$ muxIn_0 [4:0] $end
$var wire 5 m$ muxIn_1 [4:0] $end
$var wire 1 X" sel $end
$var wire 5 n$ muxOut [4:0] $end
$var reg 6 o$ s_selected_vector [5:0] $end
$upscope $end
$scope module PLEXERS_31 $end
$var wire 1 p$ enable $end
$var wire 5 q$ muxIn_0 [4:0] $end
$var wire 5 r$ muxIn_1 [4:0] $end
$var wire 1 ^" sel $end
$var wire 5 s$ muxOut [4:0] $end
$var reg 6 t$ s_selected_vector [5:0] $end
$upscope $end
$scope module PLEXERS_32 $end
$var wire 1 u$ enable $end
$var wire 5 v$ muxIn_0 [4:0] $end
$var wire 5 w$ muxIn_1 [4:0] $end
$var wire 1 R" sel $end
$var wire 5 x$ muxOut [4:0] $end
$var reg 6 y$ s_selected_vector [5:0] $end
$upscope $end
$scope module PLEXERS_33 $end
$var wire 1 z$ enable $end
$var wire 5 {$ muxIn_0 [4:0] $end
$var wire 5 |$ muxIn_1 [4:0] $end
$var wire 1 [" sel $end
$var wire 5 }$ muxOut [4:0] $end
$var reg 6 ~$ s_selected_vector [5:0] $end
$upscope $end
$scope module PLEXERS_34 $end
$var wire 1 !% enable $end
$var wire 3 "% sel [2:0] $end
$var wire 1 Y" decoderOut_7 $end
$var wire 1 J" decoderOut_6 $end
$var wire 1 >" decoderOut_5 $end
$var wire 1 B" decoderOut_4 $end
$var wire 1 C" decoderOut_3 $end
$var wire 1 M" decoderOut_2 $end
$var wire 1 H" decoderOut_1 $end
$var wire 1 ?" decoderOut_0 $end
$upscope $end
$upscope $end
$upscope $end
$upscope $end
$upscope $end
$enddefinitions $end
#0
$dumpvars
b0 "%
1!%
b0 ~$
b0 }$
b0 |$
b0 {$
1z$
b0 y$
b0 x$
b0 w$
b0 v$
1u$
b0 t$
b0 s$
b0 r$
b0 q$
1p$
b0 o$
b0 n$
b0 m$
b0 l$
1k$
b1 j$
b1 i$
b1 h$
b0 g$
1f$
b0 e$
1d$
b0 c$
b0 b$
b0 a$
b0 `$
1_$
b0 ^$
b0 ]$
b0 \$
b0 [$
1Z$
b0 Y$
b0 X$
b0 W$
b0 V$
1U$
b0 T$
b0 S$
b0 R$
b0 Q$
1P$
b0 O$
b0 N$
b0 M$
b0 L$
1K$
b0 J$
b0 I$
b0 H$
b0 G$
1F$
b0 E$
b0 D$
b0 C$
b0 B$
1A$
b0 @$
b0 ?$
0>$
1=$
b1 <$
1;$
b1 :$
b0 9$
08$
b0 7$
16$
15$
x4$
b0 3$
02$
11$
00$
0/$
0.$
0-$
1,$
0+$
1*$
b0 )$
b0 ($
0'$
1&$
b0 %$
1$$
0#$
0"$
0!$
0~#
0}#
0|#
b0 {#
b0 z#
b0 y#
b0 x#
b0 w#
b0 v#
b0 u#
b0 t#
b0 s#
b0 r#
b0 q#
1p#
0o#
0n#
0m#
0l#
0k#
0j#
1i#
0h#
0g#
b1 f#
b0 e#
b0 d#
b0 c#
b0 b#
b0 a#
b0 `#
b0 _#
b0 ^#
b1 ]#
b1 \#
0[#
0Z#
0Y#
0X#
0W#
0V#
0U#
1T#
0S#
0R#
0Q#
1P#
xO#
0N#
0M#
0L#
0K#
b0 J#
b0 I#
b0 H#
b0 G#
b0 F#
0E#
1D#
b0 C#
b0 B#
b0 A#
0@#
1?#
1>#
0=#
b0 <#
b0 ;#
b0 :#
09#
08#
b0 7#
b1 6#
b1 5#
04#
03#
b0 2#
b0 1#
b0 0#
0/#
1.#
b0 -#
0,#
0+#
0*#
0)#
b0 (#
0'#
0&#
b0 %#
0$#
b0 ##
b0 "#
1!#
0~"
b0 }"
b0 |"
0{"
b0 z"
1y"
0x"
b0 w"
b0 v"
b1 u"
b0 t"
b0 s"
b0 r"
b0 q"
b0 p"
b0 o"
b0 n"
b0 m"
b0 l"
b0 k"
b0 j"
b1 i"
b0 h"
b0 g"
b0 f"
b0 e"
b1 d"
b0 c"
b0 b"
b0 a"
b0 `"
b0 _"
0^"
0]"
0\"
0["
0Z"
0Y"
0X"
0W"
0V"
1U"
0T"
xS"
0R"
0Q"
0P"
1O"
0N"
0M"
0L"
0K"
0J"
0I"
0H"
0G"
1F"
0E"
0D"
0C"
0B"
0A"
0@"
1?"
0>"
0="
x<"
1;"
0:"
19"
18"
b1 7"
b0 6"
b0 5"
b0 4"
b0 3"
b0 2"
b0 1"
b0 0"
b0 /"
b0 ."
b0 -"
b0 ,"
b0 +"
b0 *"
b0 )"
b0 ("
b0 '"
b0 &"
b0 %"
b1x00x $"
bx #"
bx00x ""
0!"
0~
b10 }
b1x00x |
1{
0z
1y
b11 x
b10 w
0v
0u
0t
0s
0r
0q
0p
0o
0n
0m
0l
0k
0j
0i
0h
0g
0f
0e
0d
0c
0b
0a
0`
0_
0^
0]
0\
0[
0Z
0Y
0X
0W
0V
0U
0T
0S
0R
0Q
1P
b1x00x O
b0 N
b0 M
b0 L
0K
0J
1I
0H
0G
0F
0E
0D
0C
0B
0A
0@
0?
0>
0=
0<
0;
0:
09
08
07
06
05
04
03
02
01
00
0/
0.
0-
0,
0+
0*
0)
x(
b0 '
b0 &
0%
0$
1#
b0 "
1!
$end
#500
0&$
0$$
0,$
0*$
0?#
0>#
0=$
0;$
b0x00x O
b0x00x |
b0x00x $"
0!
#1000
04$
0S"
b1 w
0O#
0<"
0(
1!"
b0 ""
0P
0y
b10 x
b1 #"
1&$
1$$
1,$
1*$
1?#
1>#
1=$
1;$
b10000 O
b10000 |
b10000 $"
1!
09"
0I
0#
#1500
0&$
0$$
0,$
0*$
0?#
0>#
0=$
0;$
b0 O
b0 |
b0 $"
0!
#2000
b0 w
1'$
1.$
1@#
1>$
b1 x
b100 ""
b1 }
1&$
1$$
1,$
1*$
1?#
1>#
1=$
1;$
b10100 O
b10100 |
b10100 $"
1!
#2500
0&$
0$$
0,$
0*$
0?#
0>#
0=$
0;$
b100 O
b100 |
b100 $"
0!
#3000
0y"
0!#
b11111111111111110010000000000000 g"
b11111111111111110010000000000000 |"
b11111111111111110010000000000000 \$
1{"
b11111111111111110010000000000000 e"
b11111111111111110010000000000000 %#
b11111111111111110010000000000000 a$
1$#
1.
1/
b1110000000000000 ("
b1110000000000000 z"
b1110000000000000 ##
b1110000000000000 %$
b1110000000000000 M
b1110000000000000 &"
10
b1110000000000000 "
b1 '
1u
b1 N
b1 %"
b1 m"
b1 q#
b1 r#
b1 a"
b1 {#
b1 D$
b1 E$
b0 i"
b0 \#
b0 <$
0;"
0i#
0?"
1H"
b10 :$
b0 ]#
b0 d"
b0 f#
b0 i$
b1 t"
b1 7$
b1 9$
b1 "%
b0 j$
14$
1S"
b11 w
b1 r"
b1 ;#
b1 r$
b10 u"
b10 6#
b10 h$
b1 c"
b1 1#
b1 w$
0'$
0.$
0@#
0>$
1O#
1<"
1(
1v
b1 f"
b1 2#
b1 7#
b1 <#
b1 ?$
b1 @$
b1 C$
b1 |$
b1 ""
b0 x
1&$
1$$
1,$
1*$
1?#
1>#
1=$
1;$
b10001 O
b10001 |
b10001 $"
1!
#3500
0&$
0$$
0,$
0*$
0?#
0>#
0=$
0;$
b1 O
b1 |
b1 $"
0!
#4000
b10 w
0v
1P
1y
b11 x
1&$
1$$
1,$
1*$
1?#
1>#
1=$
1;$
b10001 O
b10001 |
b10001 $"
1!
#4500
0&$
0$$
0,$
0*$
0?#
0>#
0=$
0;$
b1 O
b1 |
b1 $"
0!
#5000
b1 w
0!"
0P
0y
b10 x
1&$
1$$
1,$
1*$
1?#
1>#
1=$
1;$
b10001 O
b10001 |
b10001 $"
1!
#5500
0&$
0$$
0,$
0*$
0?#
0>#
0=$
0;$
b1 O
b1 |
b1 $"
0!
#6000
b0 w
b1 x
b1001 ""
b10 }
1&$
1$$
1,$
1*$
1?#
1>#
1=$
1;$
b11001 O
b11001 |
b11001 $"
1!
#6500
0&$
0$$
0,$
0*$
0?#
0>#
0=$
0;$
b1001 O
b1001 |
b1001 $"
0!
#7000
04$
0S"
b11 w
0O#
0<"
0(
1v
b0 ""
b0 x
1&$
1$$
1,$
1*$
1?#
1>#
1=$
1;$
b10000 O
b10000 |
b10000 $"
1!
#7500
0&$
0$$
0,$
0*$
0?#
0>#
0=$
0;$
b0 O
b0 |
b0 $"
0!
#8000
b10 w
0v
1P
1y
b11 x
1&$
1$$
1,$
1*$
1?#
1>#
1=$
1;$
b10000 O
b10000 |
b10000 $"
1!
#8500
0&$
0$$
0,$
0*$
0?#
0>#
0=$
0;$
b0 O
b0 |
b0 $"
0!
#9000
b1 w
1!"
0P
0y
b10 x
1&$
1$$
1,$
1*$
1?#
1>#
1=$
1;$
b10000 O
b10000 |
b10000 $"
1!
#9500
0&$
0$$
0,$
0*$
0?#
0>#
0=$
0;$
b0 O
b0 |
b0 $"
0!
#10000
b0 w
1'$
1.$
1@#
1>$
b1 x
b100 ""
b1 }
1&$
1$$
1,$
1*$
1?#
1>#
1=$
1;$
b10100 O
b10100 |
b10100 $"
1!
#10500
0&$
0$$
0,$
0*$
0?#
0>#
0=$
0;$
b100 O
b100 |
b100 $"
0!
#11000
b0 '
0u
b0 N
b0 %"
b0 m"
b0 q#
b0 r#
b0 a"
b0 {#
b0 D$
b0 E$
0H"
1M"
b11 :$
b10 t"
b10 7$
b10 9$
b10 "%
14$
1S"
b11 w
0'$
0.$
0@#
0>$
1O#
1<"
1(
1v
b1 ""
b0 x
1&$
1$$
1,$
1*$
1?#
1>#
1=$
1;$
b10001 O
b10001 |
b10001 $"
1!
#11500
0&$
0$$
0,$
0*$
0?#
0>#
0=$
0;$
b1 O
b1 |
b1 $"
0!
#12000
b10 w
0v
1P
1y
b11 x
1&$
1$$
1,$
1*$
1?#
1>#
1=$
1;$
b10001 O
b10001 |
b10001 $"
1!
#12500
0&$
0$$
0,$
0*$
0?#
0>#
0=$
0;$
b1 O
b1 |
b1 $"
0!
