tb/waves_ctb_tb_manchester_baby.vcd
$date
	Sun Dec  3 17:04:21 2023
$end
$version
	Icarus Verilog
$end
$timescale
	1ps
$end
$scope module manchester_baby $end
$scope module manchester_baby_instance $end
$var wire 1 ! fpgaGlobalClock $end
$var wire 1 " ram_data_i_0 $end
$var wire 1 # ram_data_i_1 $end
$var wire 1 $ ram_data_i_10 $end
$var wire 1 % ram_data_i_11 $end
$var wire 1 & ram_data_i_12 $end
$var wire 1 ' ram_data_i_13 $end
$var wire 1 ( ram_data_i_14 $end
$var wire 1 ) ram_data_i_15 $end
$var wire 1 * ram_data_i_16 $end
$var wire 1 + ram_data_i_17 $end
$var wire 1 , ram_data_i_18 $end
$var wire 1 - ram_data_i_19 $end
$var wire 1 . ram_data_i_2 $end
$var wire 1 / ram_data_i_20 $end
$var wire 1 0 ram_data_i_21 $end
$var wire 1 1 ram_data_i_22 $end
$var wire 1 2 ram_data_i_23 $end
$var wire 1 3 ram_data_i_24 $end
$var wire 1 4 ram_data_i_25 $end
$var wire 1 5 ram_data_i_26 $end
$var wire 1 6 ram_data_i_27 $end
$var wire 1 7 ram_data_i_28 $end
$var wire 1 8 ram_data_i_29 $end
$var wire 1 9 ram_data_i_3 $end
$var wire 1 : ram_data_i_30 $end
$var wire 1 ; ram_data_i_31 $end
$var wire 1 < ram_data_i_4 $end
$var wire 1 = ram_data_i_5 $end
$var wire 1 > ram_data_i_6 $end
$var wire 1 ? ram_data_i_7 $end
$var wire 1 @ ram_data_i_8 $end
$var wire 1 A ram_data_i_9 $end
$var wire 1 B ram_rw_en_o_0 $end
$var wire 1 C reset_i_0 $end
$var wire 1 D s_reset_i $end
$var wire 1 E stop_lamp_o_0 $end
$var wire 1 F s_stop_lamp_o $end
$var wire 1 G s_ram_rw_en_o $end
$var wire 32 H s_ram_data_o [31:0] $end
$var wire 32 I s_ram_data_i [31:0] $end
$var wire 5 J s_ram_addr_o [4:0] $end
$var wire 5 K s_logisimClockTree0 [4:0] $end
$var wire 1 L s_fpgaTick $end
$var wire 1 M ram_data_o_9 $end
$var wire 1 N ram_data_o_8 $end
$var wire 1 O ram_data_o_7 $end
$var wire 1 P ram_data_o_6 $end
$var wire 1 Q ram_data_o_5 $end
$var wire 1 R ram_data_o_4 $end
$var wire 1 S ram_data_o_31 $end
$var wire 1 T ram_data_o_30 $end
$var wire 1 U ram_data_o_3 $end
$var wire 1 V ram_data_o_29 $end
$var wire 1 W ram_data_o_28 $end
$var wire 1 X ram_data_o_27 $end
$var wire 1 Y ram_data_o_26 $end
$var wire 1 Z ram_data_o_25 $end
$var wire 1 [ ram_data_o_24 $end
$var wire 1 \ ram_data_o_23 $end
$var wire 1 ] ram_data_o_22 $end
$var wire 1 ^ ram_data_o_21 $end
$var wire 1 _ ram_data_o_20 $end
$var wire 1 ` ram_data_o_2 $end
$var wire 1 a ram_data_o_19 $end
$var wire 1 b ram_data_o_18 $end
$var wire 1 c ram_data_o_17 $end
$var wire 1 d ram_data_o_16 $end
$var wire 1 e ram_data_o_15 $end
$var wire 1 f ram_data_o_14 $end
$var wire 1 g ram_data_o_13 $end
$var wire 1 h ram_data_o_12 $end
$var wire 1 i ram_data_o_11 $end
$var wire 1 j ram_data_o_10 $end
$var wire 1 k ram_data_o_1 $end
$var wire 1 l ram_data_o_0 $end
$var wire 1 m ram_addr_o_4 $end
$var wire 1 n ram_addr_o_3 $end
$var wire 1 o ram_addr_o_2 $end
$var wire 1 p ram_addr_o_1 $end
$var wire 1 q ram_addr_o_0 $end
$var wire 1 r logisim_clock_tree_0_out $end
$scope module BASE_0 $end
$var wire 1 ! FPGAClock $end
$var wire 1 L FPGATick $end
$var wire 1 s s_tickNext $end
$var wire 3 t s_countNext [2:0] $end
$var reg 3 u s_countReg [2:0] $end
$var reg 1 v s_tickReg $end
$upscope $end
$scope module BASE_1 $end
$var wire 1 L clockTick $end
$var wire 1 ! globalClock $end
$var wire 1 w s_counterNext $end
$var wire 1 x s_counterIsZero $end
$var wire 5 y clockBus [4:0] $end
$var reg 2 z s_bufferRegs [1:0] $end
$var reg 1 { s_counterValue $end
$var reg 1 | s_derivedClock $end
$var reg 4 } s_outputRegs [3:0] $end
$var integer 32 ~ n [31:0] $end
$upscope $end
$scope module CIRCUIT_0 $end
$var wire 5 !" logisimClockTree0 [4:0] $end
$var wire 5 "" ram_addr_o [4:0] $end
$var wire 32 #" ram_data_i [31:0] $end
$var wire 32 $" ram_data_o [31:0] $end
$var wire 1 G ram_rw_en_o $end
$var wire 1 D reset_i $end
$var wire 32 %" s_logisimBus11 [31:0] $end
$var wire 5 &" s_logisimBus69 [4:0] $end
$var wire 5 '" s_logisimBus70 [4:0] $end
$var wire 5 (" s_logisimBus71 [4:0] $end
$var wire 5 )" s_logisimBus72 [4:0] $end
$var wire 5 *" s_logisimBus73 [4:0] $end
$var wire 32 +" s_logisimBus74 [31:0] $end
$var wire 32 ," s_logisimBus75 [31:0] $end
$var wire 5 -" s_logisimBus76 [4:0] $end
$var wire 5 ." s_logisimBus77 [4:0] $end
$var wire 5 /" s_logisimBus78 [4:0] $end
$var wire 5 0" s_logisimBus79 [4:0] $end
$var wire 5 1" s_logisimBus80 [4:0] $end
$var wire 32 2" s_logisimBus81 [31:0] $end
$var wire 32 3" s_logisimBus82 [31:0] $end
$var wire 5 4" s_logisimBus83 [4:0] $end
$var wire 1 5" s_logisimNet32 $end
$var wire 1 6" s_logisimNet49 $end
$var wire 1 7" s_logisimNet84 $end
$var wire 1 F stop_lamp_o $end
$var wire 1 8" s_logisimNet9 $end
$var wire 1 9" s_logisimNet85 $end
$var wire 1 :" s_logisimNet7 $end
$var wire 1 ;" s_logisimNet68 $end
$var wire 1 <" s_logisimNet67 $end
$var wire 1 =" s_logisimNet66 $end
$var wire 1 >" s_logisimNet65 $end
$var wire 1 ?" s_logisimNet64 $end
$var wire 1 @" s_logisimNet63 $end
$var wire 1 A" s_logisimNet62 $end
$var wire 1 B" s_logisimNet61 $end
$var wire 1 C" s_logisimNet60 $end
$var wire 1 D" s_logisimNet58 $end
$var wire 1 E" s_logisimNet57 $end
$var wire 1 F" s_logisimNet55 $end
$var wire 1 G" s_logisimNet54 $end
$var wire 1 H" s_logisimNet53 $end
$var wire 1 I" s_logisimNet52 $end
$var wire 1 J" s_logisimNet51 $end
$var wire 1 K" s_logisimNet47 $end
$var wire 1 L" s_logisimNet43 $end
$var wire 1 M" s_logisimNet41 $end
$var wire 1 N" s_logisimNet40 $end
$var wire 1 O" s_logisimNet39 $end
$var wire 1 P" s_logisimNet36 $end
$var wire 1 Q" s_logisimNet34 $end
$var wire 1 R" s_logisimNet33 $end
$var wire 1 S" s_logisimNet3 $end
$var wire 1 T" s_logisimNet28 $end
$var wire 1 U" s_logisimNet26 $end
$var wire 1 V" s_logisimNet25 $end
$var wire 1 W" s_logisimNet23 $end
$var wire 1 X" s_logisimNet21 $end
$var wire 1 Y" s_logisimNet20 $end
$var wire 1 Z" s_logisimNet14 $end
$var wire 1 [" s_logisimNet10 $end
$var wire 32 \" s_logisimBus8 [31:0] $end
$var wire 32 ]" s_logisimBus6 [31:0] $end
$var wire 5 ^" s_logisimBus56 [4:0] $end
$var wire 5 _" s_logisimBus5 [4:0] $end
$var wire 5 `" s_logisimBus48 [4:0] $end
$var wire 5 a" s_logisimBus45 [4:0] $end
$var wire 32 b" s_logisimBus42 [31:0] $end
$var wire 5 c" s_logisimBus4 [4:0] $end
$var wire 32 d" s_logisimBus38 [31:0] $end
$var wire 32 e" s_logisimBus37 [31:0] $end
$var wire 5 f" s_logisimBus35 [4:0] $end
$var wire 5 g" s_logisimBus31 [4:0] $end
$var wire 5 h" s_logisimBus30 [4:0] $end
$var wire 32 i" s_logisimBus29 [31:0] $end
$var wire 5 j" s_logisimBus27 [4:0] $end
$var wire 5 k" s_logisimBus24 [4:0] $end
$var wire 5 l" s_logisimBus22 [4:0] $end
$var wire 32 m" s_logisimBus2 [31:0] $end
$var wire 5 n" s_logisimBus19 [4:0] $end
$var wire 5 o" s_logisimBus18 [4:0] $end
$var wire 5 p" s_logisimBus17 [4:0] $end
$var wire 3 q" s_logisimBus16 [2:0] $end
$var wire 5 r" s_logisimBus15 [4:0] $end
$var wire 5 s" s_logisimBus13 [4:0] $end
$var wire 5 t" s_logisimBus1 [4:0] $end
$var wire 1 r logisim_clock_tree_0 $end
$scope module ARITH_35 $end
$var wire 1 u" borrowIn $end
$var wire 1 v" borrowOut $end
$var wire 32 w" dataB [31:0] $end
$var wire 1 x" s_carry $end
$var wire 32 y" result [31:0] $end
$var wire 32 z" dataA [31:0] $end
$upscope $end
$scope module ARITH_36 $end
$var wire 1 {" borrowIn $end
$var wire 1 |" borrowOut $end
$var wire 32 }" dataA [31:0] $end
$var wire 32 ~" dataB [31:0] $end
$var wire 1 !# s_carry $end
$var wire 32 "# result [31:0] $end
$upscope $end
$scope module ARITH_37 $end
$var wire 1 ## aGreaterThanB $end
$var wire 1 $# aLessThanB $end
$var wire 32 %# dataB [31:0] $end
$var wire 1 &# s_unsignedLess $end
$var wire 1 '# s_unsignedGreater $end
$var wire 1 (# s_signedLess $end
$var wire 1 )# s_signedGreater $end
$var wire 32 *# dataA [31:0] $end
$var wire 1 +# aEqualsB $end
$upscope $end
$scope module ARITH_38 $end
$var wire 1 ,# carryIn $end
$var wire 5 -# dataA [4:0] $end
$var wire 5 .# result [4:0] $end
$var wire 5 /# dataB [4:0] $end
$var wire 1 0# carryOut $end
$upscope $end
$scope module ARITH_39 $end
$var wire 1 1# carryIn $end
$var wire 5 2# dataA [4:0] $end
$var wire 5 3# result [4:0] $end
$var wire 5 4# dataB [4:0] $end
$var wire 1 5# carryOut $end
$upscope $end
$scope module ARITH_40 $end
$var wire 1 6# carryIn $end
$var wire 5 7# dataB [4:0] $end
$var wire 5 8# result [4:0] $end
$var wire 5 9# dataA [4:0] $end
$var wire 1 :# carryOut $end
$upscope $end
$scope module Acc $end
$var wire 1 ;# clock $end
$var wire 1 6" reset $end
$var wire 1 <# s_clock $end
$var wire 1 =# tick $end
$var wire 32 ># q [31:0] $end
$var wire 32 ?# d [31:0] $end
$var wire 1 W" clockEnable $end
$var reg 32 @# s_currentState [31:0] $end
$upscope $end
$scope module GATES_1 $end
$var wire 1 R" result $end
$var wire 1 A# s_realInput1 $end
$var wire 1 B# s_realInput2 $end
$var wire 1 B" input2 $end
$var wire 1 C" input1 $end
$upscope $end
$scope module GATES_10 $end
$var wire 32 C# result [31:0] $end
$var wire 32 D# s_realInput1 [31:0] $end
$var wire 32 E# s_realInput2 [31:0] $end
$var wire 32 F# input2 [31:0] $end
$var wire 32 G# input1 [31:0] $end
$upscope $end
$scope module GATES_11 $end
$var wire 1 W" result $end
$var wire 1 H# s_realInput1 $end
$var wire 1 I# s_realInput2 $end
$var wire 1 :" input2 $end
$var wire 1 Z" input1 $end
$upscope $end
$scope module GATES_12 $end
$var wire 1 =" result $end
$var wire 1 J# s_realInput1 $end
$var wire 1 K# s_realInput2 $end
$var wire 1 F" input2 $end
$var wire 1 Y" input1 $end
$upscope $end
$scope module GATES_13 $end
$var wire 1 9" input1 $end
$var wire 1 P" result $end
$var wire 1 L# s_realInput1 $end
$var wire 1 M# s_realInput2 $end
$var wire 1 L" input2 $end
$upscope $end
$scope module GATES_14 $end
$var wire 1 =" input1 $end
$var wire 1 H" result $end
$var wire 1 N# s_realInput1 $end
$var wire 1 O# s_realInput2 $end
$var wire 1 P# s_realInput3 $end
$var wire 1 A" input3 $end
$var wire 1 >" input2 $end
$upscope $end
$scope module GATES_15 $end
$var wire 1 U" result $end
$var wire 1 Q# s_realInput1 $end
$var wire 1 R# s_realInput2 $end
$var wire 1 ;" input2 $end
$var wire 1 C" input1 $end
$upscope $end
$scope module GATES_16 $end
$var wire 1 [" result $end
$var wire 1 S# s_realInput1 $end
$var wire 1 T# s_realInput2 $end
$var wire 1 ;" input2 $end
$var wire 1 D" input1 $end
$upscope $end
$scope module GATES_17 $end
$var wire 1 O" result $end
$var wire 1 U# s_realInput1 $end
$var wire 1 V# s_realInput2 $end
$var wire 1 ;" input2 $end
$var wire 1 B" input1 $end
$upscope $end
$scope module GATES_18 $end
$var wire 1 H" input1 $end
$var wire 1 X" result $end
$var wire 1 W# s_realInput1 $end
$var wire 1 X# s_realInput2 $end
$var wire 1 ;" input2 $end
$upscope $end
$scope module GATES_19 $end
$var wire 5 Y# result [4:0] $end
$var wire 5 Z# s_realInput1 [4:0] $end
$var wire 5 [# s_realInput2 [4:0] $end
$var wire 5 \# s_realInput3 [4:0] $end
$var wire 5 ]# s_realInput4 [4:0] $end
$var wire 5 ^# s_realInput5 [4:0] $end
$var wire 5 _# input5 [4:0] $end
$var wire 5 `# input4 [4:0] $end
$var wire 5 a# input3 [4:0] $end
$var wire 5 b# input2 [4:0] $end
$var wire 5 c# input1 [4:0] $end
$upscope $end
$scope module GATES_2 $end
$var wire 1 S" result $end
$var wire 1 d# s_realInput1 $end
$var wire 1 e# s_realInput2 $end
$var wire 1 >" input2 $end
$var wire 1 @" input1 $end
$upscope $end
$scope module GATES_20 $end
$var wire 1 8" result $end
$var wire 1 f# s_realInput1 $end
$var wire 1 g# s_realInput2 $end
$var wire 1 ;" input2 $end
$var wire 1 <" input1 $end
$upscope $end
$scope module GATES_3 $end
$var wire 1 M" result $end
$var wire 1 h# s_realInput1 $end
$var wire 1 i# s_realInput2 $end
$var wire 1 A" input2 $end
$var wire 1 @" input1 $end
$upscope $end
$scope module GATES_4 $end
$var wire 1 =" input2 $end
$var wire 1 N" result $end
$var wire 1 j# s_realInput1 $end
$var wire 1 k# s_realInput2 $end
$var wire 1 @" input1 $end
$upscope $end
$scope module GATES_5 $end
$var wire 1 R" input2 $end
$var wire 1 T" result $end
$var wire 1 l# s_realInput1 $end
$var wire 1 m# s_realInput2 $end
$var wire 1 ?" input1 $end
$upscope $end
$scope module GATES_6 $end
$var wire 5 n# result [4:0] $end
$var wire 5 o# s_realInput1 [4:0] $end
$var wire 5 p# s_realInput2 [4:0] $end
$var wire 5 q# s_realInput3 [4:0] $end
$var wire 5 r# s_realInput4 [4:0] $end
$var wire 5 s# s_realInput5 [4:0] $end
$var wire 5 t# input5 [4:0] $end
$var wire 5 u# input4 [4:0] $end
$var wire 5 v# input3 [4:0] $end
$var wire 5 w# input2 [4:0] $end
$var wire 5 x# input1 [4:0] $end
$upscope $end
$scope module GATES_7 $end
$var wire 1 =" input2 $end
$var wire 1 :" result $end
$var wire 1 y# s_realInput1 $end
$var wire 1 z# s_realInput2 $end
$var wire 1 ?" input1 $end
$upscope $end
$scope module GATES_8 $end
$var wire 1 Z" result $end
$var wire 1 {# s_realInput1 $end
$var wire 1 |# s_realInput2 $end
$var wire 1 >" input2 $end
$var wire 1 ?" input1 $end
$upscope $end
$scope module GATES_9 $end
$var wire 1 I" result $end
$var wire 1 }# s_realInput1 $end
$var wire 1 ~# s_realInput2 $end
$var wire 1 ?" input2 $end
$var wire 1 Q" input1 $end
$upscope $end
$scope module IR $end
$var wire 1 !$ clock $end
$var wire 32 "$ d [31:0] $end
$var wire 1 6" reset $end
$var wire 1 #$ s_clock $end
$var wire 1 $$ tick $end
$var wire 32 %$ q [31:0] $end
$var wire 1 J" clockEnable $end
$var reg 32 &$ s_currentState [31:0] $end
$upscope $end
$scope module MEMORY_42 $end
$var wire 1 '$ clock $end
$var wire 1 ($ preset $end
$var wire 1 K" q $end
$var wire 1 L" qBar $end
$var wire 1 7" r $end
$var wire 1 6" reset $end
$var wire 1 I" s $end
$var wire 1 )$ s_clock $end
$var wire 1 *$ s_nextState $end
$var wire 1 +$ tick $end
$var reg 1 ,$ s_currentState $end
$upscope $end
$scope module MEMORY_44 $end
$var wire 1 6" clear $end
$var wire 1 P" clock $end
$var wire 1 -$ compareOut $end
$var wire 1 .$ enable $end
$var wire 1 /$ load $end
$var wire 3 0$ loadData [2:0] $end
$var wire 1 1$ s_clock $end
$var wire 1 2$ tick $end
$var wire 1 5" upNotDown $end
$var wire 1 3$ s_realEnable $end
$var wire 3 4$ countValue [2:0] $end
$var reg 1 5$ s_carry $end
$var reg 3 6$ s_counterValue [2:0] $end
$var reg 3 7$ s_nextCounterValue [2:0] $end
$upscope $end
$scope module PC $end
$var wire 1 8$ clock $end
$var wire 1 8" clockEnable $end
$var wire 5 9$ d [4:0] $end
$var wire 1 6" reset $end
$var wire 1 :$ s_clock $end
$var wire 1 ;$ tick $end
$var wire 5 <$ q [4:0] $end
$var reg 5 =$ s_currentState [4:0] $end
$upscope $end
$scope module PLEXERS_21 $end
$var wire 1 >$ enable $end
$var wire 5 ?$ muxIn_0 [4:0] $end
$var wire 5 @$ muxIn_1 [4:0] $end
$var wire 1 E" sel $end
$var wire 5 A$ muxOut [4:0] $end
$var reg 6 B$ s_selected_vector [5:0] $end
$upscope $end
$scope module PLEXERS_22 $end
$var wire 1 C$ enable $end
$var wire 5 D$ muxIn_0 [4:0] $end
$var wire 5 E$ muxIn_1 [4:0] $end
$var wire 1 S" sel $end
$var wire 5 F$ muxOut [4:0] $end
$var reg 6 G$ s_selected_vector [5:0] $end
$upscope $end
$scope module PLEXERS_23 $end
$var wire 1 H$ enable $end
$var wire 5 I$ muxIn_0 [4:0] $end
$var wire 5 J$ muxIn_1 [4:0] $end
$var wire 1 M" sel $end
$var wire 5 K$ muxOut [4:0] $end
$var reg 6 L$ s_selected_vector [5:0] $end
$upscope $end
$scope module PLEXERS_24 $end
$var wire 1 M$ enable $end
$var wire 5 N$ muxIn_0 [4:0] $end
$var wire 5 O$ muxIn_1 [4:0] $end
$var wire 1 N" sel $end
$var wire 5 P$ muxOut [4:0] $end
$var reg 6 Q$ s_selected_vector [5:0] $end
$upscope $end
$scope module PLEXERS_25 $end
$var wire 1 R$ enable $end
$var wire 5 S$ muxIn_0 [4:0] $end
$var wire 5 T$ muxIn_1 [4:0] $end
$var wire 1 T" sel $end
$var wire 5 U$ muxOut [4:0] $end
$var reg 6 V$ s_selected_vector [5:0] $end
$upscope $end
$scope module PLEXERS_26 $end
$var wire 1 W$ enable $end
$var wire 32 X$ muxIn_0 [31:0] $end
$var wire 32 Y$ muxIn_1 [31:0] $end
$var wire 1 :" sel $end
$var wire 32 Z$ muxOut [31:0] $end
$var reg 33 [$ s_selected_vector [32:0] $end
$upscope $end
$scope module PLEXERS_27 $end
$var wire 1 \$ enable $end
$var wire 32 ]$ muxIn_0 [31:0] $end
$var wire 32 ^$ muxIn_1 [31:0] $end
$var wire 1 Z" sel $end
$var wire 32 _$ muxOut [31:0] $end
$var reg 33 `$ s_selected_vector [32:0] $end
$upscope $end
$scope module PLEXERS_28 $end
$var wire 1 a$ enable $end
$var wire 3 b$ sel [2:0] $end
$var wire 1 Q" decoderOut_7 $end
$var wire 1 D" decoderOut_6 $end
$var wire 1 F" decoderOut_5 $end
$var wire 1 Y" decoderOut_4 $end
$var wire 1 A" decoderOut_3 $end
$var wire 1 >" decoderOut_2 $end
$var wire 1 B" decoderOut_1 $end
$var wire 1 C" decoderOut_0 $end
$upscope $end
$scope module PLEXERS_29 $end
$var wire 1 c$ enable $end
$var wire 5 d$ muxIn_0 [4:0] $end
$var wire 5 e$ muxIn_1 [4:0] $end
$var wire 1 <" sel $end
$var wire 5 f$ muxOut [4:0] $end
$var reg 6 g$ s_selected_vector [5:0] $end
$upscope $end
$scope module PLEXERS_30 $end
$var wire 1 h$ enable $end
$var wire 5 i$ muxIn_0 [4:0] $end
$var wire 5 j$ muxIn_1 [4:0] $end
$var wire 1 U" sel $end
$var wire 5 k$ muxOut [4:0] $end
$var reg 6 l$ s_selected_vector [5:0] $end
$upscope $end
$scope module PLEXERS_31 $end
$var wire 1 m$ enable $end
$var wire 5 n$ muxIn_0 [4:0] $end
$var wire 5 o$ muxIn_1 [4:0] $end
$var wire 1 [" sel $end
$var wire 5 p$ muxOut [4:0] $end
$var reg 6 q$ s_selected_vector [5:0] $end
$upscope $end
$scope module PLEXERS_32 $end
$var wire 1 r$ enable $end
$var wire 5 s$ muxIn_0 [4:0] $end
$var wire 5 t$ muxIn_1 [4:0] $end
$var wire 1 O" sel $end
$var wire 5 u$ muxOut [4:0] $end
$var reg 6 v$ s_selected_vector [5:0] $end
$upscope $end
$scope module PLEXERS_33 $end
$var wire 1 w$ enable $end
$var wire 5 x$ muxIn_0 [4:0] $end
$var wire 5 y$ muxIn_1 [4:0] $end
$var wire 1 X" sel $end
$var wire 5 z$ muxOut [4:0] $end
$var reg 6 {$ s_selected_vector [5:0] $end
$upscope $end
$scope module PLEXERS_34 $end
$var wire 1 |$ enable $end
$var wire 3 }$ sel [2:0] $end
$var wire 1 V" decoderOut_7 $end
$var wire 1 G" decoderOut_6 $end
$var wire 1 ;" decoderOut_5 $end
$var wire 1 ?" decoderOut_4 $end
$var wire 1 @" decoderOut_3 $end
$var wire 1 J" decoderOut_2 $end
$var wire 1 E" decoderOut_1 $end
$var wire 1 <" decoderOut_0 $end
$upscope $end
$upscope $end
$upscope $end
$upscope $end
$enddefinitions $end
#0
$dumpvars
b0 }$
1|$
b0 {$
b0 z$
b0 y$
b0 x$
1w$
b0 v$
b0 u$
b0 t$
b0 s$
1r$
b0 q$
b0 p$
b0 o$
b0 n$
1m$
b0 l$
b0 k$
b0 j$
b0 i$
1h$
b1 g$
b1 f$
b1 e$
b0 d$
1c$
b0 b$
1a$
b0 `$
b0 _$
b0 ^$
b0 ]$
1\$
b0 [$
b0 Z$
b0 Y$
b0 X$
1W$
b0 V$
b0 U$
b0 T$
b0 S$
1R$
b0 Q$
b0 P$
b0 O$
b0 N$
1M$
b0 L$
b0 K$
b0 J$
b0 I$
1H$
b0 G$
b0 F$
b0 E$
b0 D$
1C$
b0 B$
b0 A$
b0 @$
b0 ?$
1>$
b0 =$
b0 <$
0;$
1:$
b1 9$
18$
b1 7$
b0 6$
05$
b0 4$
13$
12$
x1$
b0 0$
0/$
1.$
0-$
0,$
0+$
0*$
1)$
0($
1'$
b0 &$
b0 %$
0$$
1#$
b0 "$
1!$
0~#
0}#
0|#
0{#
0z#
0y#
b0 x#
b0 w#
b0 v#
b0 u#
b0 t#
b0 s#
b0 r#
b0 q#
b0 p#
b0 o#
b0 n#
1m#
0l#
0k#
0j#
0i#
0h#
0g#
1f#
0e#
0d#
b1 c#
b0 b#
b0 a#
b0 `#
b0 _#
b0 ^#
b0 ]#
b0 \#
b0 [#
b1 Z#
b1 Y#
0X#
0W#
0V#
0U#
0T#
0S#
0R#
1Q#
0P#
0O#
0N#
1M#
xL#
0K#
0J#
0I#
0H#
b0 G#
b0 F#
b0 E#
b0 D#
b0 C#
0B#
1A#
b0 @#
b0 ?#
b0 >#
0=#
1<#
1;#
0:#
b0 9#
b0 8#
b0 7#
06#
05#
b0 4#
b1 3#
b1 2#
01#
00#
b0 /#
b0 .#
b0 -#
0,#
1+#
b0 *#
0)#
0(#
0'#
0&#
b0 %#
0$#
0##
b0 "#
0!#
b0 ~"
b0 }"
1|"
0{"
b0 z"
b0 y"
0x"
b0 w"
1v"
0u"
b0 t"
b0 s"
b1 r"
b0 q"
b0 p"
b0 o"
b0 n"
b0 m"
b0 l"
b0 k"
b0 j"
b0 i"
b0 h"
b0 g"
b1 f"
b0 e"
b0 d"
b0 c"
b0 b"
b1 a"
b0 `"
b0 _"
b0 ^"
b0 ]"
b0 \"
0["
0Z"
0Y"
0X"
0W"
0V"
0U"
0T"
0S"
1R"
0Q"
xP"
0O"
0N"
0M"
1L"
0K"
0J"
0I"
0H"
0G"
0F"
0E"
0D"
1C"
0B"
0A"
0@"
0?"
0>"
0="
1<"
0;"
0:"
x9"
18"
07"
16"
15"
b1 4"
b0 3"
b0 2"
b0 1"
b0 0"
b0 /"
b0 ."
b0 -"
b0 ,"
b0 +"
b0 *"
b0 )"
b0 ("
b0 '"
b0 &"
b0 %"
b0 $"
b0 #"
b0 ""
b1x00x !"
bx ~
bx00x }
0|
0{
b10 z
b1x00x y
1x
0w
1v
b11 u
b10 t
0s
xr
0q
0p
0o
0n
0m
0l
0k
0j
0i
0h
0g
0f
0e
0d
0c
0b
0a
0`
0_
0^
0]
0\
0[
0Z
0Y
0X
0W
0V
0U
0T
0S
0R
0Q
0P
0O
0N
0M
1L
b1x00x K
b0 J
b0 I
b0 H
0G
0F
0E
1D
1C
0B
0A
0@
0?
0>
0=
0<
0;
0:
09
08
07
06
05
04
03
02
01
00
0/
0.
0-
0,
0+
0*
0)
0(
0'
0&
0%
0$
0#
0"
1!
$end
#500
0#$
0!$
0)$
0'$
0<#
0;#
0:$
08$
b0x00x K
b0x00x y
b0x00x !"
0!
#1000
01$
0P"
b1 t
0L#
09"
0r
1|
b0 }
0L
0v
b10 u
b1 ~
1#$
1!$
1)$
1'$
1<#
1;#
1:$
18$
b10000 K
b10000 y
b10000 !"
1!
06"
0D
0C
#1500
0#$
0!$
0)$
0'$
0<#
0;#
0:$
08$
b0 K
b0 y
b0 !"
0!
#2000
b0 t
1$$
1+$
1=#
1;$
b1 u
b100 }
b1 z
1#$
1!$
1)$
1'$
1<#
1;#
1:$
18$
b10100 K
b10100 y
b10100 !"
1!
#2500
0#$
0!$
0)$
0'$
0<#
0;#
0:$
08$
b100 K
b100 y
b100 !"
0!
#3000
0v"
0|"
b11111111111111110010000000000000 d"
b11111111111111110010000000000000 y"
b11111111111111110010000000000000 Y$
1x"
b11111111111111110010000000000000 b"
b11111111111111110010000000000000 "#
b11111111111111110010000000000000 ^$
1!#
1'
1(
b1110000000000000 %"
b1110000000000000 w"
b1110000000000000 ~"
b1110000000000000 "$
b1110000000000000 I
b1110000000000000 #"
1)
1q
b1 J
b1 ""
b1 j"
b1 n#
b1 o#
b1 ^"
b1 x#
b1 A$
b1 B$
b0 f"
b0 Y#
b0 9$
08"
0f#
0<"
1E"
b10 7$
b0 Z#
b0 a"
b0 c#
b0 f$
b1 q"
b1 4$
b1 6$
b1 }$
b0 g$
11$
1P"
b11 t
b1 o"
b1 8#
b1 o$
b10 r"
b10 3#
b10 e$
b1 `"
b1 .#
b1 t$
0$$
0+$
0=#
0;$
1L#
19"
1r
1s
b1 c"
b1 /#
b1 4#
b1 9#
b1 <$
b1 =$
b1 @$
b1 y$
b1 }
b0 u
1#$
1!$
1)$
1'$
1<#
1;#
1:$
18$
b10001 K
b10001 y
b10001 !"
1!
#3500
0#$
0!$
0)$
0'$
0<#
0;#
0:$
08$
b1 K
b1 y
b1 !"
0!
#4000
b10 t
0s
1L
1v
b11 u
1#$
1!$
1)$
1'$
1<#
1;#
1:$
18$
b10001 K
b10001 y
b10001 !"
1!
#4500
0#$
0!$
0)$
0'$
0<#
0;#
0:$
08$
b1 K
b1 y
b1 !"
0!
#5000
b1 t
0|
0L
0v
b10 u
1#$
1!$
1)$
1'$
1<#
1;#
1:$
18$
b10001 K
b10001 y
b10001 !"
1!
#5500
0#$
0!$
0)$
0'$
0<#
0;#
0:$
08$
b1 K
b1 y
b1 !"
0!
#6000
b0 t
b1 u
b1001 }
b10 z
1#$
1!$
1)$
1'$
1<#
1;#
1:$
18$
b11001 K
b11001 y
b11001 !"
1!
#6500
0#$
0!$
0)$
0'$
0<#
0;#
0:$
08$
b1001 K
b1001 y
b1001 !"
0!
#7000
01$
0P"
b11 t
0L#
09"
0r
1s
b0 }
b0 u
1#$
1!$
1)$
1'$
1<#
1;#
1:$
18$
b10000 K
b10000 y
b10000 !"
1!
#7500
0#$
0!$
0)$
0'$
0<#
0;#
0:$
08$
b0 K
b0 y
b0 !"
0!
#8000
b10 t
0s
1L
1v
b11 u
1#$
1!$
1)$
1'$
1<#
1;#
1:$
18$
b10000 K
b10000 y
b10000 !"
1!
#8500
0#$
0!$
0)$
0'$
0<#
0;#
0:$
08$
b0 K
b0 y
b0 !"
0!
#9000
b1 t
1|
0L
0v
b10 u
1#$
1!$
1)$
1'$
1<#
1;#
1:$
18$
b10000 K
b10000 y
b10000 !"
1!
#9500
0#$
0!$
0)$
0'$
0<#
0;#
0:$
08$
b0 K
b0 y
b0 !"
0!
#10000
b0 t
1$$
1+$
1=#
1;$
b1 u
b100 }
b1 z
1#$
1!$
1)$
1'$
1<#
1;#
1:$
18$
b10100 K
b10100 y
b10100 !"
1!
#10500
0#$
0!$
0)$
0'$
0<#
0;#
0:$
08$
b100 K
b100 y
b100 !"
0!
#11000
0q
b0 J
b0 ""
b0 j"
b0 n#
b0 o#
b0 ^"
b0 x#
b0 A$
b0 B$
0E"
1J"
b11 7$
b10 q"
b10 4$
b10 6$
b10 }$
11$
1P"
b11 t
0$$
0+$
0=#
0;$
1L#
19"
1r
1s
b1 }
b0 u
1#$
1!$
1)$
1'$
1<#
1;#
1:$
18$
b10001 K
b10001 y
b10001 !"
1!
#11500
0#$
0!$
0)$
0'$
0<#
0;#
0:$
08$
b1 K
b1 y
b1 !"
0!
#12000
b10 t
0s
1L
1v
b11 u
1#$
1!$
1)$
1'$
1<#
1;#
1:$
18$
b10001 K
b10001 y
b10001 !"
1!
#12500
0#$
0!$
0)$
0'$
0<#
0;#
0:$
08$
b1 K
b1 y
b1 !"
0!
#13000
b1 t
0|
0L
0v
b10 u
1#$
1!$
1)$
1'$
1<#
1;#
1:$
18$
b10001 K
b10001 y
b10001 !"
1!
#13500
0#$
0!$
0)$
0'$
0<#
0;#
0:$
08$
b1 K
b1 y
b1 !"
0!
#14000
b0 t
b1 u
b1001 }
b10 z
1#$
1!$
1)$
1'$
1<#
1;#
1:$
18$
b11001 K
b11001 y
b11001 !"
1!
#14500
0#$
0!$
0)$
0'$
0<#
0;#
0:$
08$
b1001 K
b1001 y
b1001 !"
0!
