tb/waves_ctb_tb_manchester_baby.vcd
$date
	Fri Dec 15 17:08:00 2023
$end
$version
	Icarus Verilog
$end
$timescale
	1ps
$end
$scope module manchester_baby $end
$scope module manchester_baby_instance $end
$var wire 1 ! clock_o_0 $end
$var wire 1 " fpgaGlobalClock $end
$var wire 1 # ram_data_i_0 $end
$var wire 1 $ ram_data_i_1 $end
$var wire 1 % ram_data_i_10 $end
$var wire 1 & ram_data_i_11 $end
$var wire 1 ' ram_data_i_12 $end
$var wire 1 ( ram_data_i_13 $end
$var wire 1 ) ram_data_i_14 $end
$var wire 1 * ram_data_i_15 $end
$var wire 1 + ram_data_i_16 $end
$var wire 1 , ram_data_i_17 $end
$var wire 1 - ram_data_i_18 $end
$var wire 1 . ram_data_i_19 $end
$var wire 1 / ram_data_i_2 $end
$var wire 1 0 ram_data_i_20 $end
$var wire 1 1 ram_data_i_21 $end
$var wire 1 2 ram_data_i_22 $end
$var wire 1 3 ram_data_i_23 $end
$var wire 1 4 ram_data_i_24 $end
$var wire 1 5 ram_data_i_25 $end
$var wire 1 6 ram_data_i_26 $end
$var wire 1 7 ram_data_i_27 $end
$var wire 1 8 ram_data_i_28 $end
$var wire 1 9 ram_data_i_29 $end
$var wire 1 : ram_data_i_3 $end
$var wire 1 ; ram_data_i_30 $end
$var wire 1 < ram_data_i_31 $end
$var wire 1 = ram_data_i_4 $end
$var wire 1 > ram_data_i_5 $end
$var wire 1 ? ram_data_i_6 $end
$var wire 1 @ ram_data_i_7 $end
$var wire 1 A ram_data_i_8 $end
$var wire 1 B ram_data_i_9 $end
$var wire 1 C ram_rw_en_o_0 $end
$var wire 1 D reset_i_0 $end
$var wire 1 E s_reset_i $end
$var wire 1 F stop_lamp_o_0 $end
$var wire 1 G s_stop_lamp_o $end
$var wire 1 H s_ram_rw_en_o $end
$var wire 32 I s_ram_data_o [31:0] $end
$var wire 32 J s_ram_data_i [31:0] $end
$var wire 5 K s_ram_addr_o [4:0] $end
$var wire 5 L s_logisimClockTree0 [4:0] $end
$var wire 1 M s_fpgaTick $end
$var wire 1 N s_clock_o $end
$var wire 1 O ram_data_o_9 $end
$var wire 1 P ram_data_o_8 $end
$var wire 1 Q ram_data_o_7 $end
$var wire 1 R ram_data_o_6 $end
$var wire 1 S ram_data_o_5 $end
$var wire 1 T ram_data_o_4 $end
$var wire 1 U ram_data_o_31 $end
$var wire 1 V ram_data_o_30 $end
$var wire 1 W ram_data_o_3 $end
$var wire 1 X ram_data_o_29 $end
$var wire 1 Y ram_data_o_28 $end
$var wire 1 Z ram_data_o_27 $end
$var wire 1 [ ram_data_o_26 $end
$var wire 1 \ ram_data_o_25 $end
$var wire 1 ] ram_data_o_24 $end
$var wire 1 ^ ram_data_o_23 $end
$var wire 1 _ ram_data_o_22 $end
$var wire 1 ` ram_data_o_21 $end
$var wire 1 a ram_data_o_20 $end
$var wire 1 b ram_data_o_2 $end
$var wire 1 c ram_data_o_19 $end
$var wire 1 d ram_data_o_18 $end
$var wire 1 e ram_data_o_17 $end
$var wire 1 f ram_data_o_16 $end
$var wire 1 g ram_data_o_15 $end
$var wire 1 h ram_data_o_14 $end
$var wire 1 i ram_data_o_13 $end
$var wire 1 j ram_data_o_12 $end
$var wire 1 k ram_data_o_11 $end
$var wire 1 l ram_data_o_10 $end
$var wire 1 m ram_data_o_1 $end
$var wire 1 n ram_data_o_0 $end
$var wire 1 o ram_addr_o_4 $end
$var wire 1 p ram_addr_o_3 $end
$var wire 1 q ram_addr_o_2 $end
$var wire 1 r ram_addr_o_1 $end
$var wire 1 s ram_addr_o_0 $end
$scope module BASE_0 $end
$var wire 1 " FPGAClock $end
$var wire 1 M FPGATick $end
$var wire 1 t s_tickNext $end
$var wire 3 u s_countNext [2:0] $end
$var reg 3 v s_countReg [2:0] $end
$var reg 1 w s_tickReg $end
$upscope $end
$scope module BASE_1 $end
$var wire 1 M clockTick $end
$var wire 1 " globalClock $end
$var wire 1 x s_counterNext $end
$var wire 1 y s_counterIsZero $end
$var wire 5 z clockBus [4:0] $end
$var reg 2 { s_bufferRegs [1:0] $end
$var reg 1 | s_counterValue $end
$var reg 1 } s_derivedClock $end
$var reg 4 ~ s_outputRegs [3:0] $end
$var integer 32 !" n [31:0] $end
$upscope $end
$scope module CIRCUIT_0 $end
$var wire 1 N clock_o $end
$var wire 5 "" logisimClockTree0 [4:0] $end
$var wire 5 #" ram_addr_o [4:0] $end
$var wire 32 $" ram_data_i [31:0] $end
$var wire 32 %" ram_data_o [31:0] $end
$var wire 1 H ram_rw_en_o $end
$var wire 1 E reset_i $end
$var wire 32 &" s_logisimBus11 [31:0] $end
$var wire 5 '" s_logisimBus69 [4:0] $end
$var wire 5 (" s_logisimBus70 [4:0] $end
$var wire 5 )" s_logisimBus71 [4:0] $end
$var wire 5 *" s_logisimBus72 [4:0] $end
$var wire 5 +" s_logisimBus73 [4:0] $end
$var wire 32 ," s_logisimBus74 [31:0] $end
$var wire 32 -" s_logisimBus75 [31:0] $end
$var wire 5 ." s_logisimBus76 [4:0] $end
$var wire 5 /" s_logisimBus77 [4:0] $end
$var wire 5 0" s_logisimBus78 [4:0] $end
$var wire 5 1" s_logisimBus79 [4:0] $end
$var wire 5 2" s_logisimBus80 [4:0] $end
$var wire 32 3" s_logisimBus81 [31:0] $end
$var wire 32 4" s_logisimBus82 [31:0] $end
$var wire 5 5" s_logisimBus83 [4:0] $end
$var wire 1 6" s_logisimNet32 $end
$var wire 1 7" s_logisimNet49 $end
$var wire 1 8" s_logisimNet84 $end
$var wire 1 G stop_lamp_o $end
$var wire 1 9" s_logisimNet9 $end
$var wire 1 :" s_logisimNet85 $end
$var wire 1 ;" s_logisimNet7 $end
$var wire 1 <" s_logisimNet68 $end
$var wire 1 =" s_logisimNet67 $end
$var wire 1 >" s_logisimNet66 $end
$var wire 1 ?" s_logisimNet65 $end
$var wire 1 @" s_logisimNet64 $end
$var wire 1 A" s_logisimNet63 $end
$var wire 1 B" s_logisimNet62 $end
$var wire 1 C" s_logisimNet61 $end
$var wire 1 D" s_logisimNet60 $end
$var wire 1 E" s_logisimNet58 $end
$var wire 1 F" s_logisimNet57 $end
$var wire 1 G" s_logisimNet55 $end
$var wire 1 H" s_logisimNet54 $end
$var wire 1 I" s_logisimNet53 $end
$var wire 1 J" s_logisimNet52 $end
$var wire 1 K" s_logisimNet51 $end
$var wire 1 L" s_logisimNet47 $end
$var wire 1 M" s_logisimNet43 $end
$var wire 1 N" s_logisimNet41 $end
$var wire 1 O" s_logisimNet40 $end
$var wire 1 P" s_logisimNet39 $end
$var wire 1 Q" s_logisimNet36 $end
$var wire 1 R" s_logisimNet34 $end
$var wire 1 S" s_logisimNet33 $end
$var wire 1 T" s_logisimNet3 $end
$var wire 1 U" s_logisimNet28 $end
$var wire 1 V" s_logisimNet26 $end
$var wire 1 W" s_logisimNet25 $end
$var wire 1 X" s_logisimNet23 $end
$var wire 1 Y" s_logisimNet21 $end
$var wire 1 Z" s_logisimNet20 $end
$var wire 1 [" s_logisimNet14 $end
$var wire 1 \" s_logisimNet10 $end
$var wire 32 ]" s_logisimBus8 [31:0] $end
$var wire 32 ^" s_logisimBus6 [31:0] $end
$var wire 5 _" s_logisimBus56 [4:0] $end
$var wire 5 `" s_logisimBus5 [4:0] $end
$var wire 5 a" s_logisimBus48 [4:0] $end
$var wire 5 b" s_logisimBus45 [4:0] $end
$var wire 32 c" s_logisimBus42 [31:0] $end
$var wire 5 d" s_logisimBus4 [4:0] $end
$var wire 32 e" s_logisimBus38 [31:0] $end
$var wire 32 f" s_logisimBus37 [31:0] $end
$var wire 5 g" s_logisimBus35 [4:0] $end
$var wire 5 h" s_logisimBus31 [4:0] $end
$var wire 5 i" s_logisimBus30 [4:0] $end
$var wire 32 j" s_logisimBus29 [31:0] $end
$var wire 5 k" s_logisimBus27 [4:0] $end
$var wire 5 l" s_logisimBus24 [4:0] $end
$var wire 5 m" s_logisimBus22 [4:0] $end
$var wire 32 n" s_logisimBus2 [31:0] $end
$var wire 5 o" s_logisimBus19 [4:0] $end
$var wire 5 p" s_logisimBus18 [4:0] $end
$var wire 5 q" s_logisimBus17 [4:0] $end
$var wire 3 r" s_logisimBus16 [2:0] $end
$var wire 5 s" s_logisimBus15 [4:0] $end
$var wire 5 t" s_logisimBus13 [4:0] $end
$var wire 5 u" s_logisimBus1 [4:0] $end
$scope module ARITH_35 $end
$var wire 1 v" borrowIn $end
$var wire 1 w" borrowOut $end
$var wire 32 x" dataB [31:0] $end
$var wire 1 y" s_carry $end
$var wire 32 z" result [31:0] $end
$var wire 32 {" dataA [31:0] $end
$upscope $end
$scope module ARITH_36 $end
$var wire 1 |" borrowIn $end
$var wire 1 }" borrowOut $end
$var wire 32 ~" dataA [31:0] $end
$var wire 32 !# dataB [31:0] $end
$var wire 1 "# s_carry $end
$var wire 32 ## result [31:0] $end
$upscope $end
$scope module ARITH_37 $end
$var wire 1 $# aGreaterThanB $end
$var wire 1 %# aLessThanB $end
$var wire 32 &# dataB [31:0] $end
$var wire 1 '# s_unsignedLess $end
$var wire 1 (# s_unsignedGreater $end
$var wire 1 )# s_signedLess $end
$var wire 1 *# s_signedGreater $end
$var wire 32 +# dataA [31:0] $end
$var wire 1 ,# aEqualsB $end
$upscope $end
$scope module ARITH_38 $end
$var wire 1 -# carryIn $end
$var wire 5 .# dataA [4:0] $end
$var wire 5 /# result [4:0] $end
$var wire 5 0# dataB [4:0] $end
$var wire 1 1# carryOut $end
$upscope $end
$scope module ARITH_39 $end
$var wire 1 2# carryIn $end
$var wire 5 3# dataA [4:0] $end
$var wire 5 4# result [4:0] $end
$var wire 5 5# dataB [4:0] $end
$var wire 1 6# carryOut $end
$upscope $end
$scope module ARITH_40 $end
$var wire 1 7# carryIn $end
$var wire 5 8# dataB [4:0] $end
$var wire 5 9# result [4:0] $end
$var wire 5 :# dataA [4:0] $end
$var wire 1 ;# carryOut $end
$upscope $end
$scope module Acc $end
$var wire 1 <# clock $end
$var wire 1 7" reset $end
$var wire 1 =# s_clock $end
$var wire 1 ># tick $end
$var wire 32 ?# q [31:0] $end
$var wire 32 @# d [31:0] $end
$var wire 1 X" clockEnable $end
$var reg 32 A# s_currentState [31:0] $end
$upscope $end
$scope module GATES_1 $end
$var wire 1 S" result $end
$var wire 1 B# s_realInput1 $end
$var wire 1 C# s_realInput2 $end
$var wire 1 C" input2 $end
$var wire 1 D" input1 $end
$upscope $end
$scope module GATES_10 $end
$var wire 32 D# result [31:0] $end
$var wire 32 E# s_realInput1 [31:0] $end
$var wire 32 F# s_realInput2 [31:0] $end
$var wire 32 G# input2 [31:0] $end
$var wire 32 H# input1 [31:0] $end
$upscope $end
$scope module GATES_11 $end
$var wire 1 X" result $end
$var wire 1 I# s_realInput1 $end
$var wire 1 J# s_realInput2 $end
$var wire 1 ;" input2 $end
$var wire 1 [" input1 $end
$upscope $end
$scope module GATES_12 $end
$var wire 1 >" result $end
$var wire 1 K# s_realInput1 $end
$var wire 1 L# s_realInput2 $end
$var wire 1 G" input2 $end
$var wire 1 Z" input1 $end
$upscope $end
$scope module GATES_13 $end
$var wire 1 :" input1 $end
$var wire 1 Q" result $end
$var wire 1 M# s_realInput1 $end
$var wire 1 N# s_realInput2 $end
$var wire 1 M" input2 $end
$upscope $end
$scope module GATES_14 $end
$var wire 1 >" input1 $end
$var wire 1 I" result $end
$var wire 1 O# s_realInput1 $end
$var wire 1 P# s_realInput2 $end
$var wire 1 Q# s_realInput3 $end
$var wire 1 B" input3 $end
$var wire 1 ?" input2 $end
$upscope $end
$scope module GATES_15 $end
$var wire 1 V" result $end
$var wire 1 R# s_realInput1 $end
$var wire 1 S# s_realInput2 $end
$var wire 1 <" input2 $end
$var wire 1 D" input1 $end
$upscope $end
$scope module GATES_16 $end
$var wire 1 \" result $end
$var wire 1 T# s_realInput1 $end
$var wire 1 U# s_realInput2 $end
$var wire 1 <" input2 $end
$var wire 1 E" input1 $end
$upscope $end
$scope module GATES_17 $end
$var wire 1 P" result $end
$var wire 1 V# s_realInput1 $end
$var wire 1 W# s_realInput2 $end
$var wire 1 <" input2 $end
$var wire 1 C" input1 $end
$upscope $end
$scope module GATES_18 $end
$var wire 1 I" input1 $end
$var wire 1 Y" result $end
$var wire 1 X# s_realInput1 $end
$var wire 1 Y# s_realInput2 $end
$var wire 1 <" input2 $end
$upscope $end
$scope module GATES_19 $end
$var wire 5 Z# result [4:0] $end
$var wire 5 [# s_realInput1 [4:0] $end
$var wire 5 \# s_realInput2 [4:0] $end
$var wire 5 ]# s_realInput3 [4:0] $end
$var wire 5 ^# s_realInput4 [4:0] $end
$var wire 5 _# s_realInput5 [4:0] $end
$var wire 5 `# input5 [4:0] $end
$var wire 5 a# input4 [4:0] $end
$var wire 5 b# input3 [4:0] $end
$var wire 5 c# input2 [4:0] $end
$var wire 5 d# input1 [4:0] $end
$upscope $end
$scope module GATES_2 $end
$var wire 1 T" result $end
$var wire 1 e# s_realInput1 $end
$var wire 1 f# s_realInput2 $end
$var wire 1 ?" input2 $end
$var wire 1 A" input1 $end
$upscope $end
$scope module GATES_20 $end
$var wire 1 9" result $end
$var wire 1 g# s_realInput1 $end
$var wire 1 h# s_realInput2 $end
$var wire 1 <" input2 $end
$var wire 1 =" input1 $end
$upscope $end
$scope module GATES_3 $end
$var wire 1 N" result $end
$var wire 1 i# s_realInput1 $end
$var wire 1 j# s_realInput2 $end
$var wire 1 B" input2 $end
$var wire 1 A" input1 $end
$upscope $end
$scope module GATES_4 $end
$var wire 1 >" input2 $end
$var wire 1 O" result $end
$var wire 1 k# s_realInput1 $end
$var wire 1 l# s_realInput2 $end
$var wire 1 A" input1 $end
$upscope $end
$scope module GATES_5 $end
$var wire 1 S" input2 $end
$var wire 1 U" result $end
$var wire 1 m# s_realInput1 $end
$var wire 1 n# s_realInput2 $end
$var wire 1 @" input1 $end
$upscope $end
$scope module GATES_6 $end
$var wire 5 o# result [4:0] $end
$var wire 5 p# s_realInput1 [4:0] $end
$var wire 5 q# s_realInput2 [4:0] $end
$var wire 5 r# s_realInput3 [4:0] $end
$var wire 5 s# s_realInput4 [4:0] $end
$var wire 5 t# s_realInput5 [4:0] $end
$var wire 5 u# input5 [4:0] $end
$var wire 5 v# input4 [4:0] $end
$var wire 5 w# input3 [4:0] $end
$var wire 5 x# input2 [4:0] $end
$var wire 5 y# input1 [4:0] $end
$upscope $end
$scope module GATES_7 $end
$var wire 1 >" input2 $end
$var wire 1 ;" result $end
$var wire 1 z# s_realInput1 $end
$var wire 1 {# s_realInput2 $end
$var wire 1 @" input1 $end
$upscope $end
$scope module GATES_8 $end
$var wire 1 [" result $end
$var wire 1 |# s_realInput1 $end
$var wire 1 }# s_realInput2 $end
$var wire 1 ?" input2 $end
$var wire 1 @" input1 $end
$upscope $end
$scope module GATES_9 $end
$var wire 1 J" result $end
$var wire 1 ~# s_realInput1 $end
$var wire 1 !$ s_realInput2 $end
$var wire 1 @" input2 $end
$var wire 1 R" input1 $end
$upscope $end
$scope module IR $end
$var wire 1 "$ clock $end
$var wire 32 #$ d [31:0] $end
$var wire 1 7" reset $end
$var wire 1 $$ s_clock $end
$var wire 1 %$ tick $end
$var wire 32 &$ q [31:0] $end
$var wire 1 K" clockEnable $end
$var reg 32 '$ s_currentState [31:0] $end
$upscope $end
$scope module MEMORY_42 $end
$var wire 1 ($ clock $end
$var wire 1 )$ preset $end
$var wire 1 L" q $end
$var wire 1 M" qBar $end
$var wire 1 8" r $end
$var wire 1 7" reset $end
$var wire 1 J" s $end
$var wire 1 *$ s_clock $end
$var wire 1 +$ s_nextState $end
$var wire 1 ,$ tick $end
$var reg 1 -$ s_currentState $end
$upscope $end
$scope module MEMORY_44 $end
$var wire 1 7" clear $end
$var wire 1 Q" clock $end
$var wire 1 .$ compareOut $end
$var wire 1 /$ enable $end
$var wire 1 0$ load $end
$var wire 3 1$ loadData [2:0] $end
$var wire 1 2$ s_clock $end
$var wire 1 3$ tick $end
$var wire 1 6" upNotDown $end
$var wire 1 4$ s_realEnable $end
$var wire 3 5$ countValue [2:0] $end
$var reg 1 6$ s_carry $end
$var reg 3 7$ s_counterValue [2:0] $end
$var reg 3 8$ s_nextCounterValue [2:0] $end
$upscope $end
$scope module PC $end
$var wire 1 9$ clock $end
$var wire 1 9" clockEnable $end
$var wire 5 :$ d [4:0] $end
$var wire 1 7" reset $end
$var wire 1 ;$ s_clock $end
$var wire 1 <$ tick $end
$var wire 5 =$ q [4:0] $end
$var reg 5 >$ s_currentState [4:0] $end
$upscope $end
$scope module PLEXERS_21 $end
$var wire 1 ?$ enable $end
$var wire 5 @$ muxIn_0 [4:0] $end
$var wire 5 A$ muxIn_1 [4:0] $end
$var wire 1 F" sel $end
$var wire 5 B$ muxOut [4:0] $end
$var reg 6 C$ s_selected_vector [5:0] $end
$upscope $end
$scope module PLEXERS_22 $end
$var wire 1 D$ enable $end
$var wire 5 E$ muxIn_0 [4:0] $end
$var wire 5 F$ muxIn_1 [4:0] $end
$var wire 1 T" sel $end
$var wire 5 G$ muxOut [4:0] $end
$var reg 6 H$ s_selected_vector [5:0] $end
$upscope $end
$scope module PLEXERS_23 $end
$var wire 1 I$ enable $end
$var wire 5 J$ muxIn_0 [4:0] $end
$var wire 5 K$ muxIn_1 [4:0] $end
$var wire 1 N" sel $end
$var wire 5 L$ muxOut [4:0] $end
$var reg 6 M$ s_selected_vector [5:0] $end
$upscope $end
$scope module PLEXERS_24 $end
$var wire 1 N$ enable $end
$var wire 5 O$ muxIn_0 [4:0] $end
$var wire 5 P$ muxIn_1 [4:0] $end
$var wire 1 O" sel $end
$var wire 5 Q$ muxOut [4:0] $end
$var reg 6 R$ s_selected_vector [5:0] $end
$upscope $end
$scope module PLEXERS_25 $end
$var wire 1 S$ enable $end
$var wire 5 T$ muxIn_0 [4:0] $end
$var wire 5 U$ muxIn_1 [4:0] $end
$var wire 1 U" sel $end
$var wire 5 V$ muxOut [4:0] $end
$var reg 6 W$ s_selected_vector [5:0] $end
$upscope $end
$scope module PLEXERS_26 $end
$var wire 1 X$ enable $end
$var wire 32 Y$ muxIn_0 [31:0] $end
$var wire 32 Z$ muxIn_1 [31:0] $end
$var wire 1 ;" sel $end
$var wire 32 [$ muxOut [31:0] $end
$var reg 33 \$ s_selected_vector [32:0] $end
$upscope $end
$scope module PLEXERS_27 $end
$var wire 1 ]$ enable $end
$var wire 32 ^$ muxIn_0 [31:0] $end
$var wire 32 _$ muxIn_1 [31:0] $end
$var wire 1 [" sel $end
$var wire 32 `$ muxOut [31:0] $end
$var reg 33 a$ s_selected_vector [32:0] $end
$upscope $end
$scope module PLEXERS_28 $end
$var wire 1 b$ enable $end
$var wire 3 c$ sel [2:0] $end
$var wire 1 R" decoderOut_7 $end
$var wire 1 E" decoderOut_6 $end
$var wire 1 G" decoderOut_5 $end
$var wire 1 Z" decoderOut_4 $end
$var wire 1 B" decoderOut_3 $end
$var wire 1 ?" decoderOut_2 $end
$var wire 1 C" decoderOut_1 $end
$var wire 1 D" decoderOut_0 $end
$upscope $end
$scope module PLEXERS_29 $end
$var wire 1 d$ enable $end
$var wire 5 e$ muxIn_0 [4:0] $end
$var wire 5 f$ muxIn_1 [4:0] $end
$var wire 1 =" sel $end
$var wire 5 g$ muxOut [4:0] $end
$var reg 6 h$ s_selected_vector [5:0] $end
$upscope $end
$scope module PLEXERS_30 $end
$var wire 1 i$ enable $end
$var wire 5 j$ muxIn_0 [4:0] $end
$var wire 5 k$ muxIn_1 [4:0] $end
$var wire 1 V" sel $end
$var wire 5 l$ muxOut [4:0] $end
$var reg 6 m$ s_selected_vector [5:0] $end
$upscope $end
$scope module PLEXERS_31 $end
$var wire 1 n$ enable $end
$var wire 5 o$ muxIn_0 [4:0] $end
$var wire 5 p$ muxIn_1 [4:0] $end
$var wire 1 \" sel $end
$var wire 5 q$ muxOut [4:0] $end
$var reg 6 r$ s_selected_vector [5:0] $end
$upscope $end
$scope module PLEXERS_32 $end
$var wire 1 s$ enable $end
$var wire 5 t$ muxIn_0 [4:0] $end
$var wire 5 u$ muxIn_1 [4:0] $end
$var wire 1 P" sel $end
$var wire 5 v$ muxOut [4:0] $end
$var reg 6 w$ s_selected_vector [5:0] $end
$upscope $end
$scope module PLEXERS_33 $end
$var wire 1 x$ enable $end
$var wire 5 y$ muxIn_0 [4:0] $end
$var wire 5 z$ muxIn_1 [4:0] $end
$var wire 1 Y" sel $end
$var wire 5 {$ muxOut [4:0] $end
$var reg 6 |$ s_selected_vector [5:0] $end
$upscope $end
$scope module PLEXERS_34 $end
$var wire 1 }$ enable $end
$var wire 3 ~$ sel [2:0] $end
$var wire 1 W" decoderOut_7 $end
$var wire 1 H" decoderOut_6 $end
$var wire 1 <" decoderOut_5 $end
$var wire 1 @" decoderOut_4 $end
$var wire 1 A" decoderOut_3 $end
$var wire 1 K" decoderOut_2 $end
$var wire 1 F" decoderOut_1 $end
$var wire 1 =" decoderOut_0 $end
$upscope $end
$upscope $end
$upscope $end
$upscope $end
$enddefinitions $end
#0
$dumpvars
b0 ~$
1}$
b0 |$
b0 {$
b0 z$
b0 y$
1x$
b0 w$
b0 v$
b0 u$
b0 t$
1s$
b0 r$
b0 q$
b0 p$
b0 o$
1n$
b0 m$
b0 l$
b0 k$
b0 j$
1i$
b1 h$
b1 g$
b1 f$
b0 e$
1d$
b0 c$
1b$
b0 a$
b0 `$
b0 _$
b0 ^$
1]$
b0 \$
b0 [$
b0 Z$
b0 Y$
1X$
b0 W$
b0 V$
b0 U$
b0 T$
1S$
b0 R$
b0 Q$
b0 P$
b0 O$
1N$
b0 M$
b0 L$
b0 K$
b0 J$
1I$
b0 H$
b0 G$
b0 F$
b0 E$
1D$
b0 C$
b0 B$
b0 A$
b0 @$
1?$
b0 >$
b0 =$
0<$
1;$
b1 :$
19$
b1 8$
b0 7$
06$
b0 5$
14$
13$
x2$
b0 1$
00$
1/$
0.$
0-$
0,$
0+$
1*$
0)$
1($
b0 '$
b0 &$
0%$
1$$
b0 #$
1"$
0!$
0~#
0}#
0|#
0{#
0z#
b0 y#
b0 x#
b0 w#
b0 v#
b0 u#
b0 t#
b0 s#
b0 r#
b0 q#
b0 p#
b0 o#
1n#
0m#
0l#
0k#
0j#
0i#
0h#
1g#
0f#
0e#
b1 d#
b0 c#
b0 b#
b0 a#
b0 `#
b0 _#
b0 ^#
b0 ]#
b0 \#
b1 [#
b1 Z#
0Y#
0X#
0W#
0V#
0U#
0T#
0S#
1R#
0Q#
0P#
0O#
1N#
xM#
0L#
0K#
0J#
0I#
b0 H#
b0 G#
b0 F#
b0 E#
b0 D#
0C#
1B#
b0 A#
b0 @#
b0 ?#
0>#
1=#
1<#
0;#
b0 :#
b0 9#
b0 8#
07#
06#
b0 5#
b1 4#
b1 3#
02#
01#
b0 0#
b0 /#
b0 .#
0-#
1,#
b0 +#
0*#
0)#
0(#
0'#
b0 &#
0%#
0$#
b0 ##
0"#
b0 !#
b0 ~"
1}"
0|"
b0 {"
b0 z"
0y"
b0 x"
1w"
0v"
b0 u"
b0 t"
b1 s"
b0 r"
b0 q"
b0 p"
b0 o"
b0 n"
b0 m"
b0 l"
b0 k"
b0 j"
b0 i"
b0 h"
b1 g"
b0 f"
b0 e"
b0 d"
b0 c"
b1 b"
b0 a"
b0 `"
b0 _"
b0 ^"
b0 ]"
0\"
0["
0Z"
0Y"
0X"
0W"
0V"
0U"
0T"
1S"
0R"
xQ"
0P"
0O"
0N"
1M"
0L"
0K"
0J"
0I"
0H"
0G"
0F"
0E"
1D"
0C"
0B"
0A"
0@"
0?"
0>"
1="
0<"
0;"
x:"
19"
08"
17"
16"
b1 5"
b0 4"
b0 3"
b0 2"
b0 1"
b0 0"
b0 /"
b0 ."
b0 -"
b0 ,"
b0 +"
b0 *"
b0 )"
b0 ("
b0 '"
b0 &"
b0 %"
b0 $"
b0 #"
b1x00x ""
bx !"
bx00x ~
0}
0|
b10 {
b1x00x z
1y
0x
1w
b11 v
b10 u
0t
0s
0r
0q
0p
0o
0n
0m
0l
0k
0j
0i
0h
0g
0f
0e
0d
0c
0b
0a
0`
0_
0^
0]
0\
0[
0Z
0Y
0X
0W
0V
0U
0T
0S
0R
0Q
0P
0O
xN
1M
b1x00x L
b0 K
b0 J
b0 I
0H
0G
0F
1E
1D
0C
0B
0A
0@
0?
0>
0=
0<
0;
0:
09
08
07
06
05
04
03
02
01
00
0/
0.
0-
0,
0+
0*
0)
0(
0'
0&
0%
0$
0#
1"
x!
$end
#500
0$$
0"$
0*$
0($
0=#
0<#
0;$
09$
b0x00x L
b0x00x z
b0x00x ""
0"
#1000
02$
0Q"
b1 u
0M#
0!
0N
0:"
1}
b0 ~
0M
0w
b10 v
b1 !"
1$$
1"$
1*$
1($
1=#
1<#
1;$
19$
b10000 L
b10000 z
b10000 ""
1"
07"
0E
0D
#1500
0$$
0"$
0*$
0($
0=#
0<#
0;$
09$
b0 L
b0 z
b0 ""
0"
#2000
b0 u
1%$
1,$
1>#
1<$
b1 v
b100 ~
b1 {
1$$
1"$
1*$
1($
1=#
1<#
1;$
19$
b10100 L
b10100 z
b10100 ""
1"
#2500
0$$
0"$
0*$
0($
0=#
0<#
0;$
09$
b100 L
b100 z
b100 ""
0"
#3000
0w"
0}"
b11111111111111110010000000000000 e"
b11111111111111110010000000000000 z"
b11111111111111110010000000000000 Z$
1y"
b11111111111111110010000000000000 c"
b11111111111111110010000000000000 ##
b11111111111111110010000000000000 _$
1"#
1(
1)
b1110000000000000 &"
b1110000000000000 x"
b1110000000000000 !#
b1110000000000000 #$
b1110000000000000 J
b1110000000000000 $"
1*
1s
b1 K
b1 #"
b1 k"
b1 o#
b1 p#
b1 _"
b1 y#
b1 B$
b1 C$
b0 g"
b0 Z#
b0 :$
09"
0g#
0="
1F"
b10 8$
b0 [#
b0 b"
b0 d#
b0 g$
b1 r"
b1 5$
b1 7$
b1 ~$
b0 h$
12$
1Q"
b11 u
b1 p"
b1 9#
b1 p$
b10 s"
b10 4#
b10 f$
b1 a"
b1 /#
b1 u$
0%$
0,$
0>#
0<$
1M#
1!
1N
1:"
1t
b1 d"
b1 0#
b1 5#
b1 :#
b1 =$
b1 >$
b1 A$
b1 z$
b1 ~
b0 v
1$$
1"$
1*$
1($
1=#
1<#
1;$
19$
b10001 L
b10001 z
b10001 ""
1"
#3500
0$$
0"$
0*$
0($
0=#
0<#
0;$
09$
b1 L
b1 z
b1 ""
0"
#4000
b10 u
0t
1M
1w
b11 v
1$$
1"$
1*$
1($
1=#
1<#
1;$
19$
b10001 L
b10001 z
b10001 ""
1"
#4500
0$$
0"$
0*$
0($
0=#
0<#
0;$
09$
b1 L
b1 z
b1 ""
0"
#5000
b1 u
0}
0M
0w
b10 v
1$$
1"$
1*$
1($
1=#
1<#
1;$
19$
b10001 L
b10001 z
b10001 ""
1"
#5500
0$$
0"$
0*$
0($
0=#
0<#
0;$
09$
b1 L
b1 z
b1 ""
0"
#6000
b0 u
b1 v
b1001 ~
b10 {
1$$
1"$
1*$
1($
1=#
1<#
1;$
19$
b11001 L
b11001 z
b11001 ""
1"
#6500
0$$
0"$
0*$
0($
0=#
0<#
0;$
09$
b1001 L
b1001 z
b1001 ""
0"
#7000
02$
0Q"
b11 u
0M#
0!
0N
0:"
1t
b0 ~
b0 v
1$$
1"$
1*$
1($
1=#
1<#
1;$
19$
b10000 L
b10000 z
b10000 ""
1"
#7500
0$$
0"$
0*$
0($
0=#
0<#
0;$
09$
b0 L
b0 z
b0 ""
0"
#8000
b10 u
0t
1M
1w
b11 v
1$$
1"$
1*$
1($
1=#
1<#
1;$
19$
b10000 L
b10000 z
b10000 ""
1"
#8500
0$$
0"$
0*$
0($
0=#
0<#
0;$
09$
b0 L
b0 z
b0 ""
0"
#9000
b1 u
1}
0M
0w
b10 v
1$$
1"$
1*$
1($
1=#
1<#
1;$
19$
b10000 L
b10000 z
b10000 ""
1"
#9500
0$$
0"$
0*$
0($
0=#
0<#
0;$
09$
b0 L
b0 z
b0 ""
0"
#10000
b0 u
1%$
1,$
1>#
1<$
b1 v
b100 ~
b1 {
1$$
1"$
1*$
1($
1=#
1<#
1;$
19$
b10100 L
b10100 z
b10100 ""
1"
#10500
0$$
0"$
0*$
0($
0=#
0<#
0;$
09$
b100 L
b100 z
b100 ""
0"
#11000
0s
b0 K
b0 #"
b0 k"
b0 o#
b0 p#
b0 _"
b0 y#
b0 B$
b0 C$
0F"
1K"
b11 8$
b10 r"
b10 5$
b10 7$
b10 ~$
12$
1Q"
b11 u
0%$
0,$
0>#
0<$
1M#
1!
1N
1:"
1t
b1 ~
b0 v
1$$
1"$
1*$
1($
1=#
1<#
1;$
19$
b10001 L
b10001 z
b10001 ""
1"
#11500
0$$
0"$
0*$
0($
0=#
0<#
0;$
09$
b1 L
b1 z
b1 ""
0"
#12000
b10 u
0t
1M
1w
b11 v
1$$
1"$
1*$
1($
1=#
1<#
1;$
19$
b10001 L
b10001 z
b10001 ""
1"
#12500
0$$
0"$
0*$
0($
0=#
0<#
0;$
09$
b1 L
b1 z
b1 ""
0"
#13000
b1 u
0}
0M
0w
b10 v
1$$
1"$
1*$
1($
1=#
1<#
1;$
19$
b10001 L
b10001 z
b10001 ""
1"
#13500
0$$
0"$
0*$
0($
0=#
0<#
0;$
09$
b1 L
b1 z
b1 ""
0"
#14000
b0 u
b1 v
b1001 ~
b10 {
1$$
1"$
1*$
1($
1=#
1<#
1;$
19$
b11001 L
b11001 z
b11001 ""
1"
#14500
0$$
0"$
0*$
0($
0=#
0<#
0;$
09$
b1001 L
b1001 z
b1001 ""
0"
