tb/waves_tb_manchester_baby.vcd
$date
	Sat Nov 25 02:34:40 2023
$end
$version
	Icarus Verilog
$end
$timescale
	1ps
$end
$scope module tb_manchester_baby $end
$scope module uut_manchester_baby $end
$var wire 1 ! clock $end
$var wire 1 " reset_i $end
$var wire 1 # stop_lamp_o $end
$var wire 1 $ ram_rw_en_o $end
$var wire 32 % ram_data_o [31:0] $end
$var wire 32 & ram_data_io [31:0] $end
$var wire 32 ' ram_data_i [31:0] $end
$var wire 5 ( ram_addr_o [4:0] $end
$var wire 1 ) logisim_clock_tree_3_out $end
$var wire 1 * logisim_clock_tree_0_out $end
$scope module manchester_baby_instance $end
$var wire 1 ! fpgaGlobalClock $end
$var wire 1 + ram_data_i_0 $end
$var wire 1 , ram_data_i_1 $end
$var wire 1 - ram_data_i_10 $end
$var wire 1 . ram_data_i_11 $end
$var wire 1 / ram_data_i_12 $end
$var wire 1 0 ram_data_i_13 $end
$var wire 1 1 ram_data_i_14 $end
$var wire 1 2 ram_data_i_15 $end
$var wire 1 3 ram_data_i_16 $end
$var wire 1 4 ram_data_i_17 $end
$var wire 1 5 ram_data_i_18 $end
$var wire 1 6 ram_data_i_19 $end
$var wire 1 7 ram_data_i_2 $end
$var wire 1 8 ram_data_i_20 $end
$var wire 1 9 ram_data_i_21 $end
$var wire 1 : ram_data_i_22 $end
$var wire 1 ; ram_data_i_23 $end
$var wire 1 < ram_data_i_24 $end
$var wire 1 = ram_data_i_25 $end
$var wire 1 > ram_data_i_26 $end
$var wire 1 ? ram_data_i_27 $end
$var wire 1 @ ram_data_i_28 $end
$var wire 1 A ram_data_i_29 $end
$var wire 1 B ram_data_i_3 $end
$var wire 1 C ram_data_i_30 $end
$var wire 1 D ram_data_i_31 $end
$var wire 1 E ram_data_i_4 $end
$var wire 1 F ram_data_i_5 $end
$var wire 1 G ram_data_i_6 $end
$var wire 1 H ram_data_i_7 $end
$var wire 1 I ram_data_i_8 $end
$var wire 1 J ram_data_i_9 $end
$var wire 1 $ ram_rw_en_o_0 $end
$var wire 1 " reset_i_0 $end
$var wire 1 K s_reset_i $end
$var wire 1 # stop_lamp_o_0 $end
$var wire 1 L s_stop_lamp_o $end
$var wire 1 M s_ram_rw_en_o $end
$var wire 32 N s_ram_data_o [31:0] $end
$var wire 32 O s_ram_data_i [31:0] $end
$var wire 5 P s_ram_addr_o [4:0] $end
$var wire 5 Q s_logisimClockTree0 [4:0] $end
$var wire 1 R s_fpgaTick $end
$var wire 1 S ram_data_o_9 $end
$var wire 1 T ram_data_o_8 $end
$var wire 1 U ram_data_o_7 $end
$var wire 1 V ram_data_o_6 $end
$var wire 1 W ram_data_o_5 $end
$var wire 1 X ram_data_o_4 $end
$var wire 1 Y ram_data_o_31 $end
$var wire 1 Z ram_data_o_30 $end
$var wire 1 [ ram_data_o_3 $end
$var wire 1 \ ram_data_o_29 $end
$var wire 1 ] ram_data_o_28 $end
$var wire 1 ^ ram_data_o_27 $end
$var wire 1 _ ram_data_o_26 $end
$var wire 1 ` ram_data_o_25 $end
$var wire 1 a ram_data_o_24 $end
$var wire 1 b ram_data_o_23 $end
$var wire 1 c ram_data_o_22 $end
$var wire 1 d ram_data_o_21 $end
$var wire 1 e ram_data_o_20 $end
$var wire 1 f ram_data_o_2 $end
$var wire 1 g ram_data_o_19 $end
$var wire 1 h ram_data_o_18 $end
$var wire 1 i ram_data_o_17 $end
$var wire 1 j ram_data_o_16 $end
$var wire 1 k ram_data_o_15 $end
$var wire 1 l ram_data_o_14 $end
$var wire 1 m ram_data_o_13 $end
$var wire 1 n ram_data_o_12 $end
$var wire 1 o ram_data_o_11 $end
$var wire 1 p ram_data_o_10 $end
$var wire 1 q ram_data_o_1 $end
$var wire 1 r ram_data_o_0 $end
$var wire 1 s ram_addr_o_4 $end
$var wire 1 t ram_addr_o_3 $end
$var wire 1 u ram_addr_o_2 $end
$var wire 1 v ram_addr_o_1 $end
$var wire 1 w ram_addr_o_0 $end
$var wire 1 ) logisim_clock_tree_3_out $end
$var wire 1 * logisim_clock_tree_0_out $end
$scope module BASE_0 $end
$var wire 1 ! FPGAClock $end
$var wire 1 R FPGATick $end
$var wire 1 x s_tickNext $end
$var wire 3 y s_countNext [2:0] $end
$var reg 3 z s_countReg [2:0] $end
$var reg 1 { s_tickReg $end
$upscope $end
$scope module BASE_1 $end
$var wire 1 R clockTick $end
$var wire 1 ! globalClock $end
$var wire 1 | s_counterNext $end
$var wire 1 } s_counterIsZero $end
$var wire 5 ~ clockBus [4:0] $end
$var reg 2 !" s_bufferRegs [1:0] $end
$var reg 1 "" s_counterValue $end
$var reg 1 #" s_derivedClock $end
$var reg 4 $" s_outputRegs [3:0] $end
$var integer 32 %" n [31:0] $end
$upscope $end
$scope module CIRCUIT_0 $end
$var wire 5 &" logisimClockTree0 [4:0] $end
$var wire 5 '" ram_addr_o [4:0] $end
$var wire 32 (" ram_data_i [31:0] $end
$var wire 32 )" ram_data_o [31:0] $end
$var wire 1 M ram_rw_en_o $end
$var wire 1 K reset_i $end
$var wire 32 *" s_logisimBus11 [31:0] $end
$var wire 5 +" s_logisimBus69 [4:0] $end
$var wire 5 ," s_logisimBus70 [4:0] $end
$var wire 5 -" s_logisimBus71 [4:0] $end
$var wire 5 ." s_logisimBus72 [4:0] $end
$var wire 5 /" s_logisimBus73 [4:0] $end
$var wire 32 0" s_logisimBus74 [31:0] $end
$var wire 32 1" s_logisimBus75 [31:0] $end
$var wire 5 2" s_logisimBus76 [4:0] $end
$var wire 5 3" s_logisimBus77 [4:0] $end
$var wire 5 4" s_logisimBus78 [4:0] $end
$var wire 5 5" s_logisimBus79 [4:0] $end
$var wire 5 6" s_logisimBus80 [4:0] $end
$var wire 32 7" s_logisimBus81 [31:0] $end
$var wire 32 8" s_logisimBus82 [31:0] $end
$var wire 5 9" s_logisimBus83 [4:0] $end
$var wire 1 :" s_logisimNet32 $end
$var wire 1 ;" s_logisimNet49 $end
$var wire 1 <" s_logisimNet84 $end
$var wire 1 L stop_lamp_o $end
$var wire 1 =" s_logisimNet9 $end
$var wire 1 >" s_logisimNet85 $end
$var wire 1 ?" s_logisimNet7 $end
$var wire 1 @" s_logisimNet68 $end
$var wire 1 A" s_logisimNet67 $end
$var wire 1 B" s_logisimNet66 $end
$var wire 1 C" s_logisimNet65 $end
$var wire 1 D" s_logisimNet64 $end
$var wire 1 E" s_logisimNet63 $end
$var wire 1 F" s_logisimNet62 $end
$var wire 1 G" s_logisimNet61 $end
$var wire 1 H" s_logisimNet60 $end
$var wire 1 I" s_logisimNet58 $end
$var wire 1 J" s_logisimNet57 $end
$var wire 1 K" s_logisimNet55 $end
$var wire 1 L" s_logisimNet54 $end
$var wire 1 M" s_logisimNet53 $end
$var wire 1 N" s_logisimNet52 $end
$var wire 1 O" s_logisimNet51 $end
$var wire 1 P" s_logisimNet47 $end
$var wire 1 Q" s_logisimNet43 $end
$var wire 1 R" s_logisimNet41 $end
$var wire 1 S" s_logisimNet40 $end
$var wire 1 T" s_logisimNet39 $end
$var wire 1 U" s_logisimNet36 $end
$var wire 1 V" s_logisimNet34 $end
$var wire 1 W" s_logisimNet33 $end
$var wire 1 X" s_logisimNet3 $end
$var wire 1 Y" s_logisimNet28 $end
$var wire 1 Z" s_logisimNet26 $end
$var wire 1 [" s_logisimNet25 $end
$var wire 1 \" s_logisimNet23 $end
$var wire 1 ]" s_logisimNet21 $end
$var wire 1 ^" s_logisimNet20 $end
$var wire 1 _" s_logisimNet14 $end
$var wire 1 `" s_logisimNet10 $end
$var wire 32 a" s_logisimBus8 [31:0] $end
$var wire 32 b" s_logisimBus6 [31:0] $end
$var wire 5 c" s_logisimBus56 [4:0] $end
$var wire 5 d" s_logisimBus5 [4:0] $end
$var wire 5 e" s_logisimBus48 [4:0] $end
$var wire 5 f" s_logisimBus45 [4:0] $end
$var wire 32 g" s_logisimBus42 [31:0] $end
$var wire 5 h" s_logisimBus4 [4:0] $end
$var wire 32 i" s_logisimBus38 [31:0] $end
$var wire 32 j" s_logisimBus37 [31:0] $end
$var wire 5 k" s_logisimBus35 [4:0] $end
$var wire 5 l" s_logisimBus31 [4:0] $end
$var wire 5 m" s_logisimBus30 [4:0] $end
$var wire 32 n" s_logisimBus29 [31:0] $end
$var wire 5 o" s_logisimBus27 [4:0] $end
$var wire 5 p" s_logisimBus24 [4:0] $end
$var wire 5 q" s_logisimBus22 [4:0] $end
$var wire 32 r" s_logisimBus2 [31:0] $end
$var wire 5 s" s_logisimBus19 [4:0] $end
$var wire 5 t" s_logisimBus18 [4:0] $end
$var wire 5 u" s_logisimBus17 [4:0] $end
$var wire 3 v" s_logisimBus16 [2:0] $end
$var wire 5 w" s_logisimBus15 [4:0] $end
$var wire 5 x" s_logisimBus13 [4:0] $end
$var wire 5 y" s_logisimBus1 [4:0] $end
$var wire 1 ) logisim_clock_tree_3 $end
$var wire 1 * logisim_clock_tree_0 $end
$scope module ARITH_35 $end
$var wire 1 z" borrowIn $end
$var wire 1 {" borrowOut $end
$var wire 32 |" dataB [31:0] $end
$var wire 1 }" s_carry $end
$var wire 32 ~" result [31:0] $end
$var wire 32 !# dataA [31:0] $end
$upscope $end
$scope module ARITH_36 $end
$var wire 1 "# borrowIn $end
$var wire 1 ## borrowOut $end
$var wire 32 $# dataA [31:0] $end
$var wire 32 %# dataB [31:0] $end
$var wire 1 &# s_carry $end
$var wire 32 '# result [31:0] $end
$upscope $end
$scope module ARITH_37 $end
$var wire 1 (# aGreaterThanB $end
$var wire 1 )# aLessThanB $end
$var wire 32 *# dataB [31:0] $end
$var wire 1 +# s_unsignedLess $end
$var wire 1 ,# s_unsignedGreater $end
$var wire 1 -# s_signedLess $end
$var wire 1 .# s_signedGreater $end
$var wire 32 /# dataA [31:0] $end
$var wire 1 0# aEqualsB $end
$upscope $end
$scope module ARITH_38 $end
$var wire 1 1# carryIn $end
$var wire 5 2# dataA [4:0] $end
$var wire 5 3# result [4:0] $end
$var wire 5 4# dataB [4:0] $end
$var wire 1 5# carryOut $end
$upscope $end
$scope module ARITH_39 $end
$var wire 1 6# carryIn $end
$var wire 5 7# dataA [4:0] $end
$var wire 5 8# result [4:0] $end
$var wire 5 9# dataB [4:0] $end
$var wire 1 :# carryOut $end
$upscope $end
$scope module ARITH_40 $end
$var wire 1 ;# carryIn $end
$var wire 5 <# dataB [4:0] $end
$var wire 5 =# result [4:0] $end
$var wire 5 ># dataA [4:0] $end
$var wire 1 ?# carryOut $end
$upscope $end
$scope module Acc $end
$var wire 1 @# clock $end
$var wire 1 ;" reset $end
$var wire 1 A# s_clock $end
$var wire 1 B# tick $end
$var wire 32 C# q [31:0] $end
$var wire 32 D# d [31:0] $end
$var wire 1 \" clockEnable $end
$var reg 32 E# s_currentState [31:0] $end
$upscope $end
$scope module GATES_1 $end
$var wire 1 W" result $end
$var wire 1 F# s_realInput1 $end
$var wire 1 G# s_realInput2 $end
$var wire 1 G" input2 $end
$var wire 1 H" input1 $end
$upscope $end
$scope module GATES_10 $end
$var wire 32 H# result [31:0] $end
$var wire 32 I# s_realInput1 [31:0] $end
$var wire 32 J# s_realInput2 [31:0] $end
$var wire 32 K# input2 [31:0] $end
$var wire 32 L# input1 [31:0] $end
$upscope $end
$scope module GATES_11 $end
$var wire 1 \" result $end
$var wire 1 M# s_realInput1 $end
$var wire 1 N# s_realInput2 $end
$var wire 1 ?" input2 $end
$var wire 1 _" input1 $end
$upscope $end
$scope module GATES_12 $end
$var wire 1 B" result $end
$var wire 1 O# s_realInput1 $end
$var wire 1 P# s_realInput2 $end
$var wire 1 K" input2 $end
$var wire 1 ^" input1 $end
$upscope $end
$scope module GATES_13 $end
$var wire 1 >" input1 $end
$var wire 1 U" result $end
$var wire 1 Q# s_realInput1 $end
$var wire 1 R# s_realInput2 $end
$var wire 1 Q" input2 $end
$upscope $end
$scope module GATES_14 $end
$var wire 1 B" input1 $end
$var wire 1 M" result $end
$var wire 1 S# s_realInput1 $end
$var wire 1 T# s_realInput2 $end
$var wire 1 U# s_realInput3 $end
$var wire 1 F" input3 $end
$var wire 1 C" input2 $end
$upscope $end
$scope module GATES_15 $end
$var wire 1 Z" result $end
$var wire 1 V# s_realInput1 $end
$var wire 1 W# s_realInput2 $end
$var wire 1 @" input2 $end
$var wire 1 H" input1 $end
$upscope $end
$scope module GATES_16 $end
$var wire 1 `" result $end
$var wire 1 X# s_realInput1 $end
$var wire 1 Y# s_realInput2 $end
$var wire 1 @" input2 $end
$var wire 1 I" input1 $end
$upscope $end
$scope module GATES_17 $end
$var wire 1 T" result $end
$var wire 1 Z# s_realInput1 $end
$var wire 1 [# s_realInput2 $end
$var wire 1 @" input2 $end
$var wire 1 G" input1 $end
$upscope $end
$scope module GATES_18 $end
$var wire 1 M" input1 $end
$var wire 1 ]" result $end
$var wire 1 \# s_realInput1 $end
$var wire 1 ]# s_realInput2 $end
$var wire 1 @" input2 $end
$upscope $end
$scope module GATES_19 $end
$var wire 5 ^# result [4:0] $end
$var wire 5 _# s_realInput1 [4:0] $end
$var wire 5 `# s_realInput2 [4:0] $end
$var wire 5 a# s_realInput3 [4:0] $end
$var wire 5 b# s_realInput4 [4:0] $end
$var wire 5 c# s_realInput5 [4:0] $end
$var wire 5 d# input5 [4:0] $end
$var wire 5 e# input4 [4:0] $end
$var wire 5 f# input3 [4:0] $end
$var wire 5 g# input2 [4:0] $end
$var wire 5 h# input1 [4:0] $end
$upscope $end
$scope module GATES_2 $end
$var wire 1 X" result $end
$var wire 1 i# s_realInput1 $end
$var wire 1 j# s_realInput2 $end
$var wire 1 C" input2 $end
$var wire 1 E" input1 $end
$upscope $end
$scope module GATES_20 $end
$var wire 1 =" result $end
$var wire 1 k# s_realInput1 $end
$var wire 1 l# s_realInput2 $end
$var wire 1 @" input2 $end
$var wire 1 A" input1 $end
$upscope $end
$scope module GATES_3 $end
$var wire 1 R" result $end
$var wire 1 m# s_realInput1 $end
$var wire 1 n# s_realInput2 $end
$var wire 1 F" input2 $end
$var wire 1 E" input1 $end
$upscope $end
$scope module GATES_4 $end
$var wire 1 B" input2 $end
$var wire 1 S" result $end
$var wire 1 o# s_realInput1 $end
$var wire 1 p# s_realInput2 $end
$var wire 1 E" input1 $end
$upscope $end
$scope module GATES_5 $end
$var wire 1 W" input2 $end
$var wire 1 Y" result $end
$var wire 1 q# s_realInput1 $end
$var wire 1 r# s_realInput2 $end
$var wire 1 D" input1 $end
$upscope $end
$scope module GATES_6 $end
$var wire 5 s# result [4:0] $end
$var wire 5 t# s_realInput1 [4:0] $end
$var wire 5 u# s_realInput2 [4:0] $end
$var wire 5 v# s_realInput3 [4:0] $end
$var wire 5 w# s_realInput4 [4:0] $end
$var wire 5 x# s_realInput5 [4:0] $end
$var wire 5 y# input5 [4:0] $end
$var wire 5 z# input4 [4:0] $end
$var wire 5 {# input3 [4:0] $end
$var wire 5 |# input2 [4:0] $end
$var wire 5 }# input1 [4:0] $end
$upscope $end
$scope module GATES_7 $end
$var wire 1 B" input2 $end
$var wire 1 ?" result $end
$var wire 1 ~# s_realInput1 $end
$var wire 1 !$ s_realInput2 $end
$var wire 1 D" input1 $end
$upscope $end
$scope module GATES_8 $end
$var wire 1 _" result $end
$var wire 1 "$ s_realInput1 $end
$var wire 1 #$ s_realInput2 $end
$var wire 1 C" input2 $end
$var wire 1 D" input1 $end
$upscope $end
$scope module GATES_9 $end
$var wire 1 N" result $end
$var wire 1 $$ s_realInput1 $end
$var wire 1 %$ s_realInput2 $end
$var wire 1 D" input2 $end
$var wire 1 V" input1 $end
$upscope $end
$scope module IR $end
$var wire 1 &$ clock $end
$var wire 32 '$ d [31:0] $end
$var wire 1 ;" reset $end
$var wire 1 ($ s_clock $end
$var wire 1 )$ tick $end
$var wire 32 *$ q [31:0] $end
$var wire 1 O" clockEnable $end
$var reg 32 +$ s_currentState [31:0] $end
$upscope $end
$scope module MEMORY_42 $end
$var wire 1 ,$ clock $end
$var wire 1 -$ preset $end
$var wire 1 P" q $end
$var wire 1 Q" qBar $end
$var wire 1 <" r $end
$var wire 1 ;" reset $end
$var wire 1 N" s $end
$var wire 1 .$ s_clock $end
$var wire 1 /$ s_nextState $end
$var wire 1 0$ tick $end
$var reg 1 1$ s_currentState $end
$upscope $end
$scope module MEMORY_44 $end
$var wire 1 ;" clear $end
$var wire 1 U" clock $end
$var wire 1 2$ compareOut $end
$var wire 1 3$ enable $end
$var wire 1 4$ load $end
$var wire 3 5$ loadData [2:0] $end
$var wire 1 6$ s_clock $end
$var wire 1 7$ tick $end
$var wire 1 :" upNotDown $end
$var wire 1 8$ s_realEnable $end
$var wire 3 9$ countValue [2:0] $end
$var reg 1 :$ s_carry $end
$var reg 3 ;$ s_counterValue [2:0] $end
$var reg 3 <$ s_nextCounterValue [2:0] $end
$upscope $end
$scope module PC $end
$var wire 1 =$ clock $end
$var wire 1 =" clockEnable $end
$var wire 5 >$ d [4:0] $end
$var wire 1 ;" reset $end
$var wire 1 ?$ s_clock $end
$var wire 1 @$ tick $end
$var wire 5 A$ q [4:0] $end
$var reg 5 B$ s_currentState [4:0] $end
$upscope $end
$scope module PLEXERS_21 $end
$var wire 1 C$ enable $end
$var wire 5 D$ muxIn_0 [4:0] $end
$var wire 5 E$ muxIn_1 [4:0] $end
$var wire 1 J" sel $end
$var wire 5 F$ muxOut [4:0] $end
$var reg 6 G$ s_selected_vector [5:0] $end
$upscope $end
$scope module PLEXERS_22 $end
$var wire 1 H$ enable $end
$var wire 5 I$ muxIn_0 [4:0] $end
$var wire 5 J$ muxIn_1 [4:0] $end
$var wire 1 X" sel $end
$var wire 5 K$ muxOut [4:0] $end
$var reg 6 L$ s_selected_vector [5:0] $end
$upscope $end
$scope module PLEXERS_23 $end
$var wire 1 M$ enable $end
$var wire 5 N$ muxIn_0 [4:0] $end
$var wire 5 O$ muxIn_1 [4:0] $end
$var wire 1 R" sel $end
$var wire 5 P$ muxOut [4:0] $end
$var reg 6 Q$ s_selected_vector [5:0] $end
$upscope $end
$scope module PLEXERS_24 $end
$var wire 1 R$ enable $end
$var wire 5 S$ muxIn_0 [4:0] $end
$var wire 5 T$ muxIn_1 [4:0] $end
$var wire 1 S" sel $end
$var wire 5 U$ muxOut [4:0] $end
$var reg 6 V$ s_selected_vector [5:0] $end
$upscope $end
$scope module PLEXERS_25 $end
$var wire 1 W$ enable $end
$var wire 5 X$ muxIn_0 [4:0] $end
$var wire 5 Y$ muxIn_1 [4:0] $end
$var wire 1 Y" sel $end
$var wire 5 Z$ muxOut [4:0] $end
$var reg 6 [$ s_selected_vector [5:0] $end
$upscope $end
$scope module PLEXERS_26 $end
$var wire 1 \$ enable $end
$var wire 32 ]$ muxIn_0 [31:0] $end
$var wire 32 ^$ muxIn_1 [31:0] $end
$var wire 1 ?" sel $end
$var wire 32 _$ muxOut [31:0] $end
$var reg 33 `$ s_selected_vector [32:0] $end
$upscope $end
$scope module PLEXERS_27 $end
$var wire 1 a$ enable $end
$var wire 32 b$ muxIn_0 [31:0] $end
$var wire 32 c$ muxIn_1 [31:0] $end
$var wire 1 _" sel $end
$var wire 32 d$ muxOut [31:0] $end
$var reg 33 e$ s_selected_vector [32:0] $end
$upscope $end
$scope module PLEXERS_28 $end
$var wire 1 f$ enable $end
$var wire 3 g$ sel [2:0] $end
$var wire 1 V" decoderOut_7 $end
$var wire 1 I" decoderOut_6 $end
$var wire 1 K" decoderOut_5 $end
$var wire 1 ^" decoderOut_4 $end
$var wire 1 F" decoderOut_3 $end
$var wire 1 C" decoderOut_2 $end
$var wire 1 G" decoderOut_1 $end
$var wire 1 H" decoderOut_0 $end
$upscope $end
$scope module PLEXERS_29 $end
$var wire 1 h$ enable $end
$var wire 5 i$ muxIn_0 [4:0] $end
$var wire 5 j$ muxIn_1 [4:0] $end
$var wire 1 A" sel $end
$var wire 5 k$ muxOut [4:0] $end
$var reg 6 l$ s_selected_vector [5:0] $end
$upscope $end
$scope module PLEXERS_30 $end
$var wire 1 m$ enable $end
$var wire 5 n$ muxIn_0 [4:0] $end
$var wire 5 o$ muxIn_1 [4:0] $end
$var wire 1 Z" sel $end
$var wire 5 p$ muxOut [4:0] $end
$var reg 6 q$ s_selected_vector [5:0] $end
$upscope $end
$scope module PLEXERS_31 $end
$var wire 1 r$ enable $end
$var wire 5 s$ muxIn_0 [4:0] $end
$var wire 5 t$ muxIn_1 [4:0] $end
$var wire 1 `" sel $end
$var wire 5 u$ muxOut [4:0] $end
$var reg 6 v$ s_selected_vector [5:0] $end
$upscope $end
$scope module PLEXERS_32 $end
$var wire 1 w$ enable $end
$var wire 5 x$ muxIn_0 [4:0] $end
$var wire 5 y$ muxIn_1 [4:0] $end
$var wire 1 T" sel $end
$var wire 5 z$ muxOut [4:0] $end
$var reg 6 {$ s_selected_vector [5:0] $end
$upscope $end
$scope module PLEXERS_33 $end
$var wire 1 |$ enable $end
$var wire 5 }$ muxIn_0 [4:0] $end
$var wire 5 ~$ muxIn_1 [4:0] $end
$var wire 1 ]" sel $end
$var wire 5 !% muxOut [4:0] $end
$var reg 6 "% s_selected_vector [5:0] $end
$upscope $end
$scope module PLEXERS_34 $end
$var wire 1 #% enable $end
$var wire 3 $% sel [2:0] $end
$var wire 1 [" decoderOut_7 $end
$var wire 1 L" decoderOut_6 $end
$var wire 1 @" decoderOut_5 $end
$var wire 1 D" decoderOut_4 $end
$var wire 1 E" decoderOut_3 $end
$var wire 1 O" decoderOut_2 $end
$var wire 1 J" decoderOut_1 $end
$var wire 1 A" decoderOut_0 $end
$upscope $end
$upscope $end
$upscope $end
$scope module ram_plexer $end
$var wire 1 $ rw_switch_i $end
$var wire 32 %% rx_data_o [31:0] $end
$var wire 32 &% tx_data_i [31:0] $end
$var wire 32 '% io_bus [31:0] $end
$var reg 32 (% r_copy_io [31:0] $end
$upscope $end
$upscope $end
$upscope $end
$enddefinitions $end
#0
$dumpvars
bz (%
bz '%
b0 &%
bz %%
b0 $%
1#%
b0 "%
b0 !%
b0 ~$
b0 }$
1|$
b0 {$
b0 z$
bx y$
b0 x$
1w$
b0 v$
b0 u$
b0 t$
b0 s$
1r$
b0 q$
b0 p$
bz o$
b0 n$
1m$
b1 l$
b1 k$
b1 j$
b0 i$
1h$
b0 g$
1f$
b0 e$
b0 d$
bx c$
b0 b$
1a$
b0 `$
b0 _$
bx ^$
b0 ]$
1\$
b0 [$
b0 Z$
b0 Y$
b0 X$
1W$
b0 V$
b0 U$
b0 T$
b0 S$
1R$
b0 Q$
b0 P$
b0 O$
b0 N$
1M$
b0 L$
b0 K$
b0 J$
b0 I$
1H$
b0 G$
b0 F$
b0 E$
b0 D$
1C$
b0 B$
b0 A$
0@$
1?$
b1 >$
1=$
b1 <$
b0 ;$
0:$
b0 9$
18$
17$
x6$
b0 5$
04$
13$
02$
01$
00$
0/$
1.$
0-$
1,$
b0 +$
b0 *$
0)$
1($
bz '$
1&$
0%$
0$$
0#$
0"$
0!$
0~#
b0 }#
b0 |#
b0 {#
b0 z#
b0 y#
b0 x#
b0 w#
b0 v#
b0 u#
b0 t#
b0 s#
1r#
0q#
0p#
0o#
0n#
0m#
0l#
1k#
0j#
0i#
b1 h#
b0 g#
b0 f#
b0 e#
b0 d#
b0 c#
b0 b#
b0 a#
b0 `#
b1 _#
b1 ^#
0]#
0\#
0[#
0Z#
0Y#
0X#
0W#
1V#
0U#
0T#
0S#
1R#
xQ#
0P#
0O#
0N#
0M#
b0 L#
b0 K#
b0 J#
b0 I#
b0 H#
0G#
1F#
b0 E#
b0 D#
b0 C#
0B#
1A#
1@#
0?#
b0 >#
b0 =#
b0 <#
0;#
0:#
b0 9#
b1 8#
b1 7#
06#
x5#
b0 4#
bx 3#
bz 2#
01#
10#
b0 /#
0.#
0-#
0,#
0+#
b0 *#
0)#
0(#
bx '#
x&#
bz %#
b0 $#
x##
0"#
b0 !#
bx ~"
x}"
bz |"
x{"
0z"
b0 y"
b0 x"
b1 w"
b0 v"
b0 u"
b0 t"
b0 s"
b0 r"
b0 q"
b0 p"
b0 o"
b0 n"
b0 m"
b0 l"
b1 k"
b0 j"
bx i"
b0 h"
bx g"
b1 f"
bx e"
b0 d"
b0 c"
b0 b"
b0 a"
0`"
0_"
0^"
0]"
0\"
0["
0Z"
0Y"
0X"
1W"
0V"
xU"
0T"
0S"
0R"
1Q"
0P"
0O"
0N"
0M"
0L"
0K"
0J"
0I"
1H"
0G"
0F"
0E"
0D"
0C"
0B"
1A"
0@"
0?"
x>"
1="
0<"
1;"
1:"
b1 9"
b0 8"
b0 7"
b0 6"
b0 5"
b0 4"
b0 3"
b0 2"
b0 1"
b0 0"
b0 /"
b0 ."
b0 -"
b0 ,"
b0 +"
bz *"
b0 )"
bz ("
b0 '"
b1x00x &"
bx %"
bx00x $"
0#"
0""
b10 !"
b1x00x ~
1}
0|
1{
b11 z
b10 y
0x
0w
0v
0u
0t
0s
0r
0q
0p
0o
0n
0m
0l
0k
0j
0i
0h
0g
0f
0e
0d
0c
0b
0a
0`
0_
0^
0]
0\
0[
0Z
0Y
0X
0W
0V
0U
0T
0S
1R
b1x00x Q
b0 P
bz O
b0 N
0M
0L
1K
zJ
zI
zH
zG
zF
zE
zD
zC
zB
zA
z@
z?
z>
z=
z<
z;
z:
z9
z8
z7
z6
z5
z4
z3
z2
z1
z0
z/
z.
z-
z,
z+
x*
x)
b0 (
bz '
bz &
b0 %
0$
0#
1"
1!
$end
#500
0($
0&$
0.$
0,$
0A#
0@#
0?$
0=$
b0x00x Q
b0x00x ~
b0x00x &"
0!
#1000
06$
0U"
b1 y
0)
0Q#
0>"
0*
1#"
b0 $"
0R
0{
b10 z
b1 %"
1($
1&$
1.$
1,$
1A#
1@#
1?$
1=$
b10000 Q
b10000 ~
b10000 &"
1!
0;"
0K
0"
#1500
0($
0&$
0.$
0,$
0A#
0@#
0?$
0=$
b0 Q
b0 ~
b0 &"
0!
#2000
b0 y
1)$
10$
1B#
1@$
b1 z
b100 $"
b1 !"
1($
1&$
1.$
1,$
1A#
1@#
1?$
1=$
b10100 Q
b10100 ~
b10100 &"
1!
#2500
0($
0&$
0.$
0,$
0A#
0@#
0?$
0=$
b100 Q
b100 ~
b100 &"
0!
#3000
0{"
0##
b10100 e"
b10100 3#
b10100 y$
05#
b11111111111111111111111111101101 i"
b11111111111111111111111111101101 ~"
b11111111111111111111111111101101 ^$
1}"
b11111111111111111111111111101101 g"
b11111111111111111111111111101101 '#
b11111111111111111111111111101101 c$
1&#
b10011 o$
b10011 2#
0J
0I
0H
0G
0F
1E
0D
0C
0B
0A
0@
0?
0>
0=
0<
0;
0:
09
08
07
06
05
04
03
02
01
00
0/
0.
0-
1,
b10011 *"
b10011 |"
b10011 %#
b10011 '$
b10011 O
b10011 ("
1+
b10011 '
b10011 %%
b10011 (%
b10011 &
b10011 '%
b1 (
1w
b1 P
b1 '"
b1 o"
b1 s#
b1 t#
b1 c"
b1 }#
b1 F$
b1 G$
b0 k"
b0 ^#
b0 >$
0="
0k#
0A"
1J"
b10 <$
b0 _#
b0 f"
b0 h#
b0 k$
b1 v"
b1 9$
b1 ;$
b1 $%
b0 l$
16$
1U"
b11 y
b1 t"
b1 =#
b1 t$
b10 w"
b10 8#
b10 j$
0)$
00$
0B#
0@$
1Q#
1>"
1*
1x
b1 h"
b1 4#
b1 9#
b1 >#
b1 A$
b1 B$
b1 E$
b1 ~$
b1 $"
b0 z
1($
1&$
1.$
1,$
1A#
1@#
1?$
1=$
b10001 Q
b10001 ~
b10001 &"
1!
#3500
0($
0&$
0.$
0,$
0A#
0@#
0?$
0=$
b1 Q
b1 ~
b1 &"
0!
#4000
b10 y
0x
1R
1{
b11 z
1($
1&$
1.$
1,$
1A#
1@#
1?$
1=$
b10001 Q
b10001 ~
b10001 &"
1!
#4500
0($
0&$
0.$
0,$
0A#
0@#
0?$
0=$
b1 Q
b1 ~
b1 &"
0!
#5000
b1 y
0#"
0R
0{
b10 z
1($
1&$
1.$
1,$
1A#
1@#
1?$
1=$
b10001 Q
b10001 ~
b10001 &"
1!
#5500
0($
0&$
0.$
0,$
0A#
0@#
0?$
0=$
b1 Q
b1 ~
b1 &"
0!
#6000
b0 y
1)
b1 z
b1001 $"
b10 !"
1($
1&$
1.$
1,$
1A#
1@#
1?$
1=$
b11001 Q
b11001 ~
b11001 &"
1!
#6500
0($
0&$
0.$
0,$
0A#
0@#
0?$
0=$
b1001 Q
b1001 ~
b1001 &"
0!
#7000
06$
0U"
b11 y
0)
0Q#
0>"
0*
1x
b0 $"
b0 z
1($
1&$
1.$
1,$
1A#
1@#
1?$
1=$
b10000 Q
b10000 ~
b10000 &"
1!
#7500
0($
0&$
0.$
0,$
0A#
0@#
0?$
0=$
b0 Q
b0 ~
b0 &"
0!
#8000
b10 y
0x
1R
1{
b11 z
1($
1&$
1.$
1,$
1A#
1@#
1?$
1=$
b10000 Q
b10000 ~
b10000 &"
1!
#8500
0($
0&$
0.$
0,$
0A#
0@#
0?$
0=$
b0 Q
b0 ~
b0 &"
0!
#9000
b1 y
1#"
0R
0{
b10 z
1($
1&$
1.$
1,$
1A#
1@#
1?$
1=$
b10000 Q
b10000 ~
b10000 &"
1!
#9500
0($
0&$
0.$
0,$
0A#
0@#
0?$
0=$
b0 Q
b0 ~
b0 &"
0!
#10000
b0 y
1)$
10$
1B#
1@$
b1 z
b100 $"
b1 !"
1($
1&$
1.$
1,$
1A#
1@#
1?$
1=$
b10100 Q
b10100 ~
b10100 &"
1!
#10500
0($
0&$
0.$
0,$
0A#
0@#
0?$
0=$
b100 Q
b100 ~
b100 &"
0!
